verilog/adderSim6.vcd
$version Yosys 0.9+4052 (git sha1 44520808, clang  -fPIC -Os) $end
$date Mon May 24 19:47:09 2021 $end
$scope module addersim $end
$var wire 1 n1 clk $end
$var wire 32 n2 input1 $end
$var wire 32 n3 input2 $end
$var wire 32 n4 out $end
$scope module adder_inst $end
$var wire 1 n5 addsubsel $end
$var wire 1 n6 ahold $end
$var wire 1 n7 bhold $end
$var wire 1 n8 ce $end
$var wire 1 n9 chold $end
$var wire 1 n10 ci $end
$var wire 1 n11 clk $end
$var wire 1 n12 co $end
$var wire 1 n13 dhold $end
$var wire 32 n14 input1 $end
$var wire 32 n15 input2 $end
$var wire 1 n16 irstbot $end
$var wire 1 n17 irsttop $end
$var wire 1 n18 oholdbot $end
$var wire 1 n19 oholdtop $end
$var wire 1 n20 oloadbot $end
$var wire 1 n21 oloadtop $end
$var wire 1 n22 orstbot $end
$var wire 1 n23 orsttop $end
$var wire 32 n24 out $end
$upscope $end
$upscope $end
$enddefinitions $end
#0
b00000000000000000000000000000000 n4
b00000000000000000000000000000001 n3
b00000000000000000000000000000001 n2
bx n1
b00000000000000000000000000000000 n24
b0 n23
b0 n22
b0 n21
b0 n20
b0 n19
b0 n18
b0 n17
b0 n16
b00000000000000000000000000000001 n15
b00000000000000000000000000000001 n14
b0 n13
b0 n12
bx n11
b0 n10
b0 n9
b1 n8
b0 n7
b0 n6
b0 n5
#5
b0 n1
b0 n11
#10
b1 n1
b1 n11
#15
b0 n1
b0 n11
#20
b1 n1
b1 n11
#25
b0 n1
b0 n11
#30
b1 n1
b1 n11
#35
b0 n1
b0 n11
#40
b1 n1
b1 n11
#45
b0 n1
b0 n11
#50
b1 n1
b1 n11
#55
b0 n1
b0 n11
#60
b1 n1
b1 n11
#65
b0 n1
b0 n11
#70
b1 n1
b1 n11
#75
b0 n1
b0 n11
#80
b1 n1
b1 n11
#85
b0 n1
b0 n11
#90
b1 n1
b1 n11
#95
b0 n1
b0 n11
#100
b1 n1
b1 n11
#105
b0 n1
b0 n11
#110
b1 n1
b1 n11
#115
b0 n1
b0 n11
#120
b1 n1
b1 n11
#125
b0 n1
b0 n11
#130
b1 n1
b1 n11
#135
b0 n1
b0 n11
#140
b1 n1
b1 n11
#145
b0 n1
b0 n11
#150
b1 n1
b1 n11
#155
b0 n1
b0 n11
#160
b1 n1
b1 n11
#165
b0 n1
b0 n11
#170
b1 n1
b1 n11
#175
b0 n1
b0 n11
#180
b1 n1
b1 n11
#185
b0 n1
b0 n11
#190
b1 n1
b1 n11
#195
b0 n1
b0 n11
#200
b1 n1
b1 n11
