verilog/simulationtest2.vcd
$date
	Mon May 31 16:03:33 2021
$end
$version
	Icarus Verilog
$end
$timescale
	100ms
$end
$scope module top $end
$var wire 1 ! Branch_Enable $end
$var wire 7 " AluCtl_wire [6:0] $end
$var wire 32 # ALUOut [31:0] $end
$var reg 32 $ A [31:0] $end
$var reg 32 % B [31:0] $end
$var reg 4 & FuncCode [3:0] $end
$var reg 7 ' Opcode [6:0] $end
$var reg 1 ( clk $end
$scope module aluCtrl_inst $end
$var wire 4 ) FuncCode [3:0] $end
$var wire 7 * Opcode [6:0] $end
$var reg 7 + ALUCtl [6:0] $end
$upscope $end
$scope module alu_inst $end
$var wire 32 , A [31:0] $end
$var wire 7 - ALUctl [6:0] $end
$var wire 32 . B [31:0] $end
$var wire 1 / clk $end
$var wire 32 0 mult3_O [31:0] $end
$var wire 32 1 mult2_O [31:0] $end
$var wire 32 2 mult1_O [31:0] $end
$var wire 32 3 add_O2 [31:0] $end
$var wire 32 4 add_O [31:0] $end
$var reg 32 5 ALUOut [31:0] $end
$var reg 1 ! Branch_Enable $end
$var reg 1 6 CE $end
$var reg 1 7 DEF $end
$var reg 16 8 add_A [15:0] $end
$var reg 16 9 add_A2 [15:0] $end
$var reg 16 : add_B [15:0] $end
$var reg 16 ; add_B2 [15:0] $end
$var reg 16 < add_C [15:0] $end
$var reg 16 = add_C2 [15:0] $end
$var reg 16 > add_D [15:0] $end
$var reg 16 ? add_D2 [15:0] $end
$var reg 1 @ add_addsubbot $end
$var reg 1 A add_addsubtop $end
$var reg 32 B bit_rev_A [31:0] $end
$var reg 32 C bit_rev_srlout [31:0] $end
$var reg 16 D mult1_A [15:0] $end
$var reg 16 E mult1_B [15:0] $end
$var reg 16 F mult2_A [15:0] $end
$var reg 16 G mult2_B [15:0] $end
$var reg 16 H mult3_A [15:0] $end
$var reg 16 I mult3_B [15:0] $end
$var reg 16 J mult_C [15:0] $end
$var reg 16 K mult_D [15:0] $end
$var reg 32 L sll_two_power_n [31:0] $end
$var reg 1 M xor_addsubbot $end
$var reg 1 N xor_addsubtop $end
$var integer 32 O N [31:0] $end
$var integer 32 P i [31:0] $end
$scope module i_sbmac16_addsub $end
$var wire 16 Q A [15:0] $end
$var wire 1 7 ACCUMCI $end
$var wire 1 @ ADDSUBBOT $end
$var wire 1 A ADDSUBTOP $end
$var wire 1 7 AHOLD $end
$var wire 16 R B [15:0] $end
$var wire 1 7 BHOLD $end
$var wire 16 S C [15:0] $end
$var wire 1 6 CE $end
$var wire 1 7 CHOLD $end
$var wire 1 7 CI $end
$var wire 1 / CLK $end
$var wire 1 T CO $end
$var wire 16 U D [15:0] $end
$var wire 1 7 DHOLD $end
$var wire 1 V HCI $end
$var wire 1 7 IRSTBOT $end
$var wire 1 7 IRSTTOP $end
$var wire 1 W LCI $end
$var wire 1 7 OHOLDBOT $end
$var wire 1 7 OHOLDTOP $end
$var wire 1 7 OLOADBOT $end
$var wire 1 7 OLOADTOP $end
$var wire 1 7 ORSTBOT $end
$var wire 1 7 ORSTTOP $end
$var wire 16 X Oh [15:0] $end
$var wire 16 Y Ol [15:0] $end
$var wire 1 7 SIGNEXTIN $end
$var wire 1 Z clock $end
$var wire 16 [ iA [15:0] $end
$var wire 16 \ iB [15:0] $end
$var wire 16 ] iC [15:0] $end
$var wire 16 ^ iD [15:0] $end
$var wire 16 _ iF [15:0] $end
$var wire 16 ` iG [15:0] $end
$var wire 32 a iH [31:0] $end
$var wire 16 b iJ [15:0] $end
$var wire 16 c iK [15:0] $end
$var wire 16 d iQ [15:0] $end
$var wire 16 e iS [15:0] $end
$var wire 16 f iW [15:0] $end
$var wire 16 g iX [15:0] $end
$var wire 16 h iY [15:0] $end
$var wire 16 i iZ [15:0] $end
$var wire 16 j p_Al_Bl [15:0] $end
$var wire 16 k p_Al_Bh [15:0] $end
$var wire 16 l p_Ah_Bl [15:0] $end
$var wire 16 m p_Ah_Bh [15:0] $end
$var wire 16 n iR [15:0] $end
$var wire 16 o iP [15:0] $end
$var wire 32 p iL [31:0] $end
$var wire 24 q iK_e [23:0] $end
$var wire 24 r iJ_e [23:0] $end
$var wire 16 s YZ [15:0] $end
$var wire 16 t XW [15:0] $end
$var wire 1 u SIGNEXTOUT $end
$var wire 32 v O [31:0] $end
$var wire 1 w LCO $end
$var wire 16 x Bl [15:0] $end
$var wire 16 y Bh [15:0] $end
$var wire 16 z Al [15:0] $end
$var wire 16 { Ah [15:0] $end
$var wire 1 | ACCUMCO $end
$var reg 16 } rA [15:0] $end
$var reg 16 ~ rB [15:0] $end
$var reg 16 !" rC [15:0] $end
$var reg 16 "" rD [15:0] $end
$var reg 16 #" rF [15:0] $end
$var reg 16 $" rG [15:0] $end
$var reg 32 %" rH [31:0] $end
$var reg 16 &" rJ [15:0] $end
$var reg 16 '" rK [15:0] $end
$var reg 16 (" rQ [15:0] $end
$var reg 16 )" rS [15:0] $end
$upscope $end
$scope module sb_mac16_mult1 $end
$var wire 16 *" A [15:0] $end
$var wire 1 7 ACCUMCI $end
$var wire 1 7 ADDSUBBOT $end
$var wire 1 7 ADDSUBTOP $end
$var wire 1 7 AHOLD $end
$var wire 16 +" B [15:0] $end
$var wire 1 7 BHOLD $end
$var wire 16 ," C [15:0] $end
$var wire 1 7 CE $end
$var wire 1 7 CHOLD $end
$var wire 1 7 CI $end
$var wire 1 / CLK $end
$var wire 1 -" CO $end
$var wire 16 ." D [15:0] $end
$var wire 1 7 DHOLD $end
$var wire 1 /" HCI $end
$var wire 1 7 IRSTBOT $end
$var wire 1 7 IRSTTOP $end
$var wire 1 0" LCI $end
$var wire 1 7 OHOLDBOT $end
$var wire 1 7 OHOLDTOP $end
$var wire 1 7 OLOADBOT $end
$var wire 1 7 OLOADTOP $end
$var wire 1 7 ORSTBOT $end
$var wire 1 7 ORSTTOP $end
$var wire 1 7 SIGNEXTIN $end
$var wire 1 1" clock $end
$var wire 16 2" iA [15:0] $end
$var wire 16 3" iB [15:0] $end
$var wire 16 4" iC [15:0] $end
$var wire 16 5" iD [15:0] $end
$var wire 16 6" iF [15:0] $end
$var wire 16 7" iG [15:0] $end
$var wire 32 8" iH [31:0] $end
$var wire 16 9" iJ [15:0] $end
$var wire 16 :" iK [15:0] $end
$var wire 16 ;" iW [15:0] $end
$var wire 16 <" iX [15:0] $end
$var wire 16 =" iY [15:0] $end
$var wire 16 >" iZ [15:0] $end
$var wire 16 ?" p_Al_Bl [15:0] $end
$var wire 16 @" p_Al_Bh [15:0] $end
$var wire 16 A" p_Ah_Bl [15:0] $end
$var wire 16 B" p_Ah_Bh [15:0] $end
$var wire 16 C" iS [15:0] $end
$var wire 16 D" iR [15:0] $end
$var wire 16 E" iQ [15:0] $end
$var wire 16 F" iP [15:0] $end
$var wire 32 G" iL [31:0] $end
$var wire 24 H" iK_e [23:0] $end
$var wire 24 I" iJ_e [23:0] $end
$var wire 16 J" YZ [15:0] $end
$var wire 16 K" XW [15:0] $end
$var wire 1 L" SIGNEXTOUT $end
$var wire 16 M" Ol [15:0] $end
$var wire 16 N" Oh [15:0] $end
$var wire 32 O" O [31:0] $end
$var wire 1 P" LCO $end
$var wire 16 Q" Bl [15:0] $end
$var wire 16 R" Bh [15:0] $end
$var wire 16 S" Al [15:0] $end
$var wire 16 T" Ah [15:0] $end
$var wire 1 U" ACCUMCO $end
$var reg 16 V" rA [15:0] $end
$var reg 16 W" rB [15:0] $end
$var reg 16 X" rC [15:0] $end
$var reg 16 Y" rD [15:0] $end
$var reg 16 Z" rF [15:0] $end
$var reg 16 [" rG [15:0] $end
$var reg 32 \" rH [31:0] $end
$var reg 16 ]" rJ [15:0] $end
$var reg 16 ^" rK [15:0] $end
$var reg 16 _" rQ [15:0] $end
$var reg 16 `" rS [15:0] $end
$upscope $end
$scope module sb_mac16_mult2 $end
$var wire 16 a" A [15:0] $end
$var wire 1 7 ACCUMCI $end
$var wire 1 7 ADDSUBBOT $end
$var wire 1 7 ADDSUBTOP $end
$var wire 1 7 AHOLD $end
$var wire 16 b" B [15:0] $end
$var wire 1 7 BHOLD $end
$var wire 16 c" C [15:0] $end
$var wire 1 7 CE $end
$var wire 1 7 CHOLD $end
$var wire 1 7 CI $end
$var wire 1 / CLK $end
$var wire 1 d" CO $end
$var wire 16 e" D [15:0] $end
$var wire 1 7 DHOLD $end
$var wire 1 f" HCI $end
$var wire 1 7 IRSTBOT $end
$var wire 1 7 IRSTTOP $end
$var wire 1 g" LCI $end
$var wire 1 7 OHOLDBOT $end
$var wire 1 7 OHOLDTOP $end
$var wire 1 7 OLOADBOT $end
$var wire 1 7 OLOADTOP $end
$var wire 1 7 ORSTBOT $end
$var wire 1 7 ORSTTOP $end
$var wire 1 7 SIGNEXTIN $end
$var wire 1 h" clock $end
$var wire 16 i" iA [15:0] $end
$var wire 16 j" iB [15:0] $end
$var wire 16 k" iC [15:0] $end
$var wire 16 l" iD [15:0] $end
$var wire 16 m" iF [15:0] $end
$var wire 16 n" iG [15:0] $end
$var wire 32 o" iH [31:0] $end
$var wire 16 p" iJ [15:0] $end
$var wire 16 q" iK [15:0] $end
$var wire 16 r" iW [15:0] $end
$var wire 16 s" iX [15:0] $end
$var wire 16 t" iY [15:0] $end
$var wire 16 u" iZ [15:0] $end
$var wire 16 v" p_Al_Bl [15:0] $end
$var wire 16 w" p_Al_Bh [15:0] $end
$var wire 16 x" p_Ah_Bl [15:0] $end
$var wire 16 y" p_Ah_Bh [15:0] $end
$var wire 16 z" iS [15:0] $end
$var wire 16 {" iR [15:0] $end
$var wire 16 |" iQ [15:0] $end
$var wire 16 }" iP [15:0] $end
$var wire 32 ~" iL [31:0] $end
$var wire 24 !# iK_e [23:0] $end
$var wire 24 "# iJ_e [23:0] $end
$var wire 16 ## YZ [15:0] $end
$var wire 16 $# XW [15:0] $end
$var wire 1 %# SIGNEXTOUT $end
$var wire 16 &# Ol [15:0] $end
$var wire 16 '# Oh [15:0] $end
$var wire 32 (# O [31:0] $end
$var wire 1 )# LCO $end
$var wire 16 *# Bl [15:0] $end
$var wire 16 +# Bh [15:0] $end
$var wire 16 ,# Al [15:0] $end
$var wire 16 -# Ah [15:0] $end
$var wire 1 .# ACCUMCO $end
$var reg 16 /# rA [15:0] $end
$var reg 16 0# rB [15:0] $end
$var reg 16 1# rC [15:0] $end
$var reg 16 2# rD [15:0] $end
$var reg 16 3# rF [15:0] $end
$var reg 16 4# rG [15:0] $end
$var reg 32 5# rH [31:0] $end
$var reg 16 6# rJ [15:0] $end
$var reg 16 7# rK [15:0] $end
$var reg 16 8# rQ [15:0] $end
$var reg 16 9# rS [15:0] $end
$upscope $end
$scope module sb_mac16_mult3 $end
$var wire 16 :# A [15:0] $end
$var wire 1 7 ACCUMCI $end
$var wire 1 7 ADDSUBBOT $end
$var wire 1 7 ADDSUBTOP $end
$var wire 1 7 AHOLD $end
$var wire 16 ;# B [15:0] $end
$var wire 1 7 BHOLD $end
$var wire 16 <# C [15:0] $end
$var wire 1 7 CE $end
$var wire 1 7 CHOLD $end
$var wire 1 7 CI $end
$var wire 1 / CLK $end
$var wire 1 =# CO $end
$var wire 16 ># D [15:0] $end
$var wire 1 7 DHOLD $end
$var wire 1 ?# HCI $end
$var wire 1 7 IRSTBOT $end
$var wire 1 7 IRSTTOP $end
$var wire 1 @# LCI $end
$var wire 1 7 OHOLDBOT $end
$var wire 1 7 OHOLDTOP $end
$var wire 1 7 OLOADBOT $end
$var wire 1 7 OLOADTOP $end
$var wire 1 7 ORSTBOT $end
$var wire 1 7 ORSTTOP $end
$var wire 1 7 SIGNEXTIN $end
$var wire 1 A# clock $end
$var wire 16 B# iA [15:0] $end
$var wire 16 C# iB [15:0] $end
$var wire 16 D# iC [15:0] $end
$var wire 16 E# iD [15:0] $end
$var wire 16 F# iF [15:0] $end
$var wire 16 G# iG [15:0] $end
$var wire 32 H# iH [31:0] $end
$var wire 16 I# iJ [15:0] $end
$var wire 16 J# iK [15:0] $end
$var wire 16 K# iW [15:0] $end
$var wire 16 L# iX [15:0] $end
$var wire 16 M# iY [15:0] $end
$var wire 16 N# iZ [15:0] $end
$var wire 16 O# p_Al_Bl [15:0] $end
$var wire 16 P# p_Al_Bh [15:0] $end
$var wire 16 Q# p_Ah_Bl [15:0] $end
$var wire 16 R# p_Ah_Bh [15:0] $end
$var wire 16 S# iS [15:0] $end
$var wire 16 T# iR [15:0] $end
$var wire 16 U# iQ [15:0] $end
$var wire 16 V# iP [15:0] $end
$var wire 32 W# iL [31:0] $end
$var wire 24 X# iK_e [23:0] $end
$var wire 24 Y# iJ_e [23:0] $end
$var wire 16 Z# YZ [15:0] $end
$var wire 16 [# XW [15:0] $end
$var wire 1 \# SIGNEXTOUT $end
$var wire 16 ]# Ol [15:0] $end
$var wire 16 ^# Oh [15:0] $end
$var wire 32 _# O [31:0] $end
$var wire 1 `# LCO $end
$var wire 16 a# Bl [15:0] $end
$var wire 16 b# Bh [15:0] $end
$var wire 16 c# Al [15:0] $end
$var wire 16 d# Ah [15:0] $end
$var wire 1 e# ACCUMCO $end
$var reg 16 f# rA [15:0] $end
$var reg 16 g# rB [15:0] $end
$var reg 16 h# rC [15:0] $end
$var reg 16 i# rD [15:0] $end
$var reg 16 j# rF [15:0] $end
$var reg 16 k# rG [15:0] $end
$var reg 32 l# rH [31:0] $end
$var reg 16 m# rJ [15:0] $end
$var reg 16 n# rK [15:0] $end
$var reg 16 o# rQ [15:0] $end
$var reg 16 p# rS [15:0] $end
$upscope $end
$scope module xor_sb_mac16_inst $end
$var wire 16 q# A [15:0] $end
$var wire 1 7 ACCUMCI $end
$var wire 1 M ADDSUBBOT $end
$var wire 1 N ADDSUBTOP $end
$var wire 1 7 AHOLD $end
$var wire 16 r# B [15:0] $end
$var wire 1 7 BHOLD $end
$var wire 16 s# C [15:0] $end
$var wire 1 6 CE $end
$var wire 1 7 CHOLD $end
$var wire 1 7 CI $end
$var wire 1 / CLK $end
$var wire 1 t# CO $end
$var wire 16 u# D [15:0] $end
$var wire 1 7 DHOLD $end
$var wire 1 v# HCI $end
$var wire 1 7 IRSTBOT $end
$var wire 1 7 IRSTTOP $end
$var wire 1 w# LCI $end
$var wire 1 7 OHOLDBOT $end
$var wire 1 7 OHOLDTOP $end
$var wire 1 7 OLOADBOT $end
$var wire 1 7 OLOADTOP $end
$var wire 1 7 ORSTBOT $end
$var wire 1 7 ORSTTOP $end
$var wire 16 x# Oh [15:0] $end
$var wire 16 y# Ol [15:0] $end
$var wire 1 7 SIGNEXTIN $end
$var wire 1 z# clock $end
$var wire 16 {# iA [15:0] $end
$var wire 16 |# iB [15:0] $end
$var wire 16 }# iC [15:0] $end
$var wire 16 ~# iD [15:0] $end
$var wire 16 !$ iF [15:0] $end
$var wire 16 "$ iG [15:0] $end
$var wire 32 #$ iH [31:0] $end
$var wire 16 $$ iJ [15:0] $end
$var wire 16 %$ iK [15:0] $end
$var wire 16 &$ iQ [15:0] $end
$var wire 16 '$ iS [15:0] $end
$var wire 16 ($ iW [15:0] $end
$var wire 16 )$ iX [15:0] $end
$var wire 16 *$ iY [15:0] $end
$var wire 16 +$ iZ [15:0] $end
$var wire 16 ,$ p_Al_Bl [15:0] $end
$var wire 16 -$ p_Al_Bh [15:0] $end
$var wire 16 .$ p_Ah_Bl [15:0] $end
$var wire 16 /$ p_Ah_Bh [15:0] $end
$var wire 16 0$ iR [15:0] $end
$var wire 16 1$ iP [15:0] $end
$var wire 32 2$ iL [31:0] $end
$var wire 24 3$ iK_e [23:0] $end
$var wire 24 4$ iJ_e [23:0] $end
$var wire 16 5$ YZ [15:0] $end
$var wire 16 6$ XW [15:0] $end
$var wire 1 7$ SIGNEXTOUT $end
$var wire 32 8$ O [31:0] $end
$var wire 1 9$ LCO $end
$var wire 16 :$ Bl [15:0] $end
$var wire 16 ;$ Bh [15:0] $end
$var wire 16 <$ Al [15:0] $end
$var wire 16 =$ Ah [15:0] $end
$var wire 1 >$ ACCUMCO $end
$var reg 16 ?$ rA [15:0] $end
$var reg 16 @$ rB [15:0] $end
$var reg 16 A$ rC [15:0] $end
$var reg 16 B$ rD [15:0] $end
$var reg 16 C$ rF [15:0] $end
$var reg 16 D$ rG [15:0] $end
$var reg 32 E$ rH [31:0] $end
$var reg 16 F$ rJ [15:0] $end
$var reg 16 G$ rK [15:0] $end
$var reg 16 H$ rQ [15:0] $end
$var reg 16 I$ rS [15:0] $end
$upscope $end
$upscope $end
$upscope $end
$enddefinitions $end
#0
$dumpvars
bx I$
bx H$
bx G$
bx F$
bx E$
bx D$
bx C$
bx B$
bx A$
bx @$
bx ?$
0>$
b0 =$
b0 <$
b0 ;$
b0 :$
09$
b0 8$
07$
b0 6$
b0 5$
b0 4$
b0 3$
b0 2$
b0 1$
b0 0$
b0 /$
b0 .$
b0 -$
b0 ,$
b0 +$
b0 *$
b0 )$
b0 ($
bx '$
bx &$
b0 %$
b0 $$
b0 #$
b0 "$
b0 !$
b0 ~#
b0 }#
b0 |#
b0 {#
xz#
b0 y#
b0 x#
0w#
0v#
b0 u#
0t#
b0 s#
b0 r#
b0 q#
bx p#
bx o#
bx n#
bx m#
bx l#
bx k#
bx j#
bx i#
bx h#
bx g#
bx f#
xe#
b0 d#
b0 c#
b0 b#
b1 a#
x`#
b0 _#
b0 ^#
b0 ]#
0\#
bx [#
bx Z#
b0 Y#
b0 X#
b0 W#
bx V#
bx U#
bx T#
bx S#
b0 R#
b0 Q#
b0 P#
b0 O#
b1 N#
bx M#
b0 L#
bx K#
b0 J#
b0 I#
b0 H#
b0 G#
b0 F#
b0 E#
b0 D#
b1 C#
b0 B#
xA#
0@#
0?#
b0 >#
x=#
b0 <#
b1 ;#
b0 :#
bx 9#
bx 8#
bx 7#
bx 6#
bx 5#
bx 4#
bx 3#
bx 2#
bx 1#
bx 0#
bx /#
x.#
b0 -#
b0 ,#
b0 +#
b0 *#
x)#
b0 (#
b0 '#
b0 &#
0%#
bx $#
bx ##
b0 "#
b0 !#
b0 ~"
bx }"
bx |"
bx {"
bx z"
b0 y"
b0 x"
b0 w"
b0 v"
b0 u"
bx t"
b0 s"
bx r"
b0 q"
b0 p"
b0 o"
b0 n"
b0 m"
b0 l"
b0 k"
b0 j"
b0 i"
xh"
0g"
0f"
b0 e"
xd"
b0 c"
b0 b"
b0 a"
bx `"
bx _"
bx ^"
bx ]"
bx \"
bx ["
bx Z"
bx Y"
bx X"
bx W"
bx V"
xU"
b0 T"
b0 S"
b0 R"
b1 Q"
xP"
b0 O"
b0 N"
b0 M"
0L"
bx K"
bx J"
b0 I"
b0 H"
b0 G"
bx F"
bx E"
bx D"
bx C"
b0 B"
b0 A"
b0 @"
b0 ?"
b1 >"
bx ="
b0 <"
bx ;"
b0 :"
b0 9"
b0 8"
b0 7"
b0 6"
b0 5"
b0 4"
b1 3"
b0 2"
x1"
00"
0/"
b0 ."
x-"
b0 ,"
b1 +"
b0 *"
bx )"
bx ("
bx '"
bx &"
bx %"
bx $"
bx #"
bx ""
bx !"
bx ~
bx }
0|
b0 {
b0 z
b0 y
b0 x
0w
b0 v
0u
b0 t
b0 s
b0 r
b0 q
b0 p
b0 o
b0 n
b0 m
b0 l
b0 k
b0 j
b0 i
b0 h
b0 g
b0 f
bx e
bx d
b0 c
b0 b
b0 a
b0 `
b0 _
b0 ^
b0 ]
b0 \
b0 [
xZ
b0 Y
b0 X
0W
0V
b0 U
0T
b0 S
b0 R
b0 Q
b100000 P
bx O
0N
0M
b1 L
b0 K
b0 J
b1 I
b0 H
b0 G
b0 F
b1 E
b0 D
bx C
b0 B
0A
0@
b0 ?
b0 >
b0 =
b0 <
b0 ;
b0 :
b0 9
b0 8
07
16
b0 5
b0 4
b0 3
b0 2
b0 1
b0 0
z/
b0 .
b1111 -
b0 ,
b1111 +
b0 *
b0 )
0(
b0 '
b0 &
b0 %
b0 $
b0 #
b1111 "
0!
$end
#5
1(
#10
0(
#15
1(
#20
0(
#25
1(
#30
0(
#35
1(
#40
0(
#45
1(
#50
b111100000 x#
b111100000 1$
b111100000 6$
b111100000 ($
b111100000 }#
b111100000 =
b111100000 s#
b1111000000000000111100000 3
b1111000000000000111100000 8$
b111100000 y#
b111100000 0$
b111100000 5$
b111100000 *$
b111100000 ~#
b111100000 ?
b111100000 u#
b1100100 4
b1100100 v
b1100100 Y
b1100100 n
b111100000 1
b111100000 (#
b111100000 &#
b0 a#
b111100000 o"
b111100000 ~"
b111100000 n"
b111100000 v"
b100000 *#
b1111 ,#
b0 Q"
b0 8"
b0 G"
b0 7"
b0 ?"
b1111 S"
b1100100 s
b1010101 x
b11110000000000000000000000000000 B
b0 N#
b0 C#
b0 I
b0 ;#
b100000 u"
b100000 j"
b100000 G
b100000 b"
b1111 s"
b1111 i"
b1111 F
b1111 a"
b0 >"
b0 3"
b0 E
b0 +"
b1111 <"
b1111 2"
b1111 D
b1111 *"
b1111 h
b1111 ^
b1111 >
b1111 U
b1010101 i
b1010101 \
b1010101 :
b1010101 R
b101 #
b101 5
b0 "
b0 +
b0 -
b100000 P
b1000000000000000000000 L
0(
b110011 '
b110011 *
b111 &
b111 )
b1010101 %
b1010101 .
b1111 $
b1111 ,
#55
1(
#60
0(
#65
1(
#70
0(
#75
1(
#80
0(
#85
1(
#90
0(
#95
1(
#100
b1011111 #
b1011111 5
b100000 P
b1 "
b1 +
b1 -
0(
b110 &
b110 )
#105
1(
#110
0(
#115
1(
#120
0(
#125
1(
#130
0(
#135
1(
#140
0(
#145
1(
#150
b0 ($
b0 }#
b0 =
b0 s#
b0 y#
b0 0$
b10011100010000000000000000000 3
b10011100010000000000000000000 8$
b1001110001000 x#
b1001110001000 1$
b0 5$
b1001110001000 6$
b10011 =$
b10001000 <$
b0 *$
b0 ~#
b0 ?
b0 u#
b1001110001000 )$
b1001110001000 {#
b1001110001000 9
b1001110001000 q#
b0 '#
b10011100010000000000000000000 2
b10011100010000000000000000000 O"
b1001110001000 N"
b10011101111111 4
b10011101111111 v
b10011101111111 Y
b10011101111111 n
b0 1
b0 (#
b0 &#
b10011100010000000000000000000 8"
b10011100010000000000000000000 G"
b10000000 b#
b0 *#
b0 !#
b0 q"
b0 x"
b100111 -#
b0 o"
b0 ~"
b0 n"
b0 v"
b10000 ,#
b1001110000000 6"
b1001110000000 B"
b100000000000 I"
b100000000000 9"
b100000000000 @"
b10000000 R"
b100111 T"
b10000 S"
b10011101111111 s
b1101111 x
b1000111001000000000000000000 B
b1000000000000000 N#
b1000000000000000 C#
b1000000000000000 I
b1000000000000000 ;#
b0 u"
b0 j"
b0 G
b0 b"
b10011100010000 s"
b10011100010000 i"
b10011100010000 F
b10011100010000 a"
b1000000000000000 >"
b1000000000000000 3"
b1000000000000000 E
b1000000000000000 +"
b10011100010000 <"
b10011100010000 2"
b10011100010000 D
b10011100010000 *"
b10011100010000 h
b10011100010000 ^
b10011100010000 >
b10011100010000 U
b1101111 i
b1101111 \
b1101111 :
b1101111 R
b10 "
b10 +
b10 -
b10011101111111 #
b10011101111111 5
b100000 P
b1000000000000000 L
0(
b0 &
b0 )
b1101111 %
b1101111 .
b10011100010000 $
b10011100010000 ,
#155
1(
#160
0(
#165
1(
#170
0(
#175
1(
#180
0(
#185
1(
#190
0(
#195
1(
#200
b10011010100001 #
b10011010100001 5
b1101100101011110 s
b10011010100001 Y
b10011010100001 n
b1111111111111111 t
b10011010100001 4
b10011010100001 v
b0 X
b0 o
1T
1@
1A
b100000 P
b1010 "
b1010 +
b1010 -
0(
b1000 &
b1000 )
#205
1(
#210
0(
#215
1(
#220
0(
#225
1(
#230
0(
#235
1(
#240
0(
#245
1(
#250
b0 3
b0 8$
b0 x#
b0 1$
b0 6$
b0 =$
b0 <$
b0 )$
b0 {#
b0 9
b0 q#
b0 2
b0 O"
b0 N"
b0 8"
b0 G"
b10 Y
b10 n
b0 t
b10 4
b10 v
b0 X
b0 o
b0 b#
b100 a#
b0 -#
b0 ,#
b0 I"
b0 9"
b0 @"
b0 R"
b100 Q"
b0 6"
b0 B"
b0 T"
b0 S"
0T
b10 s
b10 x
b0 B
b100 N#
b100 C#
b100 I
b100 ;#
b0 s"
b0 i"
b0 F
b0 a"
b100 >"
b100 3"
b100 E
b100 +"
b0 <"
b0 2"
b0 D
b0 *"
0@
0A
b0 h
b0 ^
b0 >
b0 U
b10 i
b10 \
b10 :
b10 R
b1 #
b1 5
b1011 "
b1011 +
b1011 -
b100000 P
b100 L
0(
b10 &
b10 )
b10 %
b10 .
b0 $
b0 ,
#255
1(
#260
0(
#265
1(
#270
0(
#275
1(
#280
0(
#285
1(
#290
0(
#295
1(
#300
b10000000000000 x#
b10000000000000 1$
b10000000000000 6$
b10000000000000 ($
b10000000000000 }#
b10000000000000 =
b10000000000000 s#
b100000000000000010000000000000 3
b100000000000000010000000000000 8$
b10000000000000 y#
b10000000000000 0$
b10000000000000 5$
b100000 ;$
b10000000000000 +$
b10000000000000 |#
b10000000000000 ;
b10000000000000 r#
b10000000000000 0
b10000000000000 _#
b10000000000000 ]#
b10000000000000 H#
b10000000000000 W#
b100000 X#
b100000 J#
b100000 Q#
b1000 d#
b100000000000 L#
b100000000000 B#
b100000000000 H
b100000000000 :#
b10010 4
b10010 v
b10010 Y
b10010 n
b10010 s
b100000000000000000000000000000 C
b1000000000000000000000000000 B
b0 s"
b0 i"
b0 F
b0 a"
b0 <"
b0 2"
b0 D
b0 *"
b10000 h
b10000 ^
b10000 >
b10000 U
b11 "
b11 +
b11 -
b100 #
b100 5
b100000 P
0(
b101 &
b101 )
b10000 $
b10000 ,
#305
1(
#310
0(
#315
1(
#320
0(
#325
1(
#330
0(
#335
1(
#340
0(
#345
1(
#350
b100 #
b100 5
b100000000000000000000000000000 C
b10000000000000 x#
b10000000000000 1$
b10000000000000 6$
b10000000000000 ($
b10000000000000 }#
b10000000000000 =
b10000000000000 s#
b100000000000000010000000000000 3
b100000000000000010000000000000 8$
b10000000000000 y#
b10000000000000 0$
b10000000000000 5$
b100000 ;$
b10000 d#
b10000000000000 +$
b10000000000000 |#
b10000000000000 ;
b10000000000000 r#
b10000000000000 0
b10000000000000 _#
b10000000000000 ]#
b10000000000000 H#
b10000000000000 W#
b1001 4
b1001 v
b1001 Y
b1001 n
b100000 X#
b100000 J#
b100000 Q#
b10 a#
b10 Q"
b1001 s
b1 x
b10000000000000000000000000000 B
b10 N#
b10 C#
b10 I
b10 ;#
b1000000000000 L#
b1000000000000 B#
b1000000000000 H
b1000000000000 :#
b0 s"
b0 i"
b0 F
b0 a"
b10 >"
b10 3"
b10 E
b10 +"
b0 <"
b0 2"
b0 D
b0 *"
b1000 h
b1000 ^
b1000 >
b1000 U
b1 i
b1 \
b1 :
b1 R
b1 O
b1000 "
b1000 +
b1000 -
b1 P
b10 L
0(
b1101 &
b1101 )
b1 %
b1 .
b1000 $
b1000 ,
#355
1(
#360
0(
#365
1(
#370
0(
#375
1(
#380
0(
#385
1(
#390
0(
#395
1(
#400
b0 x#
b0 1$
b0 6$
b0 ($
b0 }#
b0 =
b0 s#
b0 3
b0 8$
b0 y#
b0 0$
b0 5$
b0 ;$
b0 +$
b0 |#
b0 ;
b0 r#
b0 0
b0 _#
b0 ]#
b100 4
b100 v
b100 Y
b100 n
b0 H#
b0 W#
b1000 2
b1000 O"
b1000 M"
b100 a#
b0 X#
b0 J#
b0 Q#
b0 d#
b10 ,#
b100 Q"
b1000 8"
b1000 G"
b1000 7"
b1000 ?"
b10 S"
b100 s
b10 x
b1000 #
b1000 5
b1000000000000000000000000000000 B
b100 N#
b100 C#
b100 I
b100 ;#
b0 L#
b0 B#
b0 H
b0 :#
b10 s"
b10 i"
b10 F
b10 a"
b100 >"
b100 3"
b100 E
b100 +"
b10 <"
b10 2"
b10 D
b10 *"
b10 h
b10 ^
b10 >
b10 U
b10 i
b10 \
b10 :
b10 R
b1001 "
b1001 +
b1001 -
b10 O
b100000 P
b100 L
0(
b1 &
b1 )
b10 %
b10 .
b10 $
b10 ,
#405
1(
#410
0(
#415
1(
#420
0(
#425
1(
#430
0(
#435
1(
#440
0(
#445
1(
#450
b1000000000000000 x#
b1000000000000000 1$
b1000000000000000 6$
b1000000000000000 ($
b1000000000000000 }#
b1000000000000000 =
b1000000000000000 s#
b10000000000000001000000000000000 3
b10000000000000001000000000000000 8$
b1000000000000000 y#
b1000000000000000 0$
b1000000000000000 5$
b1000000000000000 *$
b1000000000000000 ~#
b1000000000000000 ?
b1000000000000000 u#
b101010 '#
b1010101000000000000000 1
b1010101000000000000000 (#
b1000000000000000 &#
b101010100 4
b101010100 v
b101010100 Y
b101010100 n
b1010101000000000000000 o"
b1010101000000000000000 ~"
b0 2
b0 O"
b0 M"
b0 a#
b10101010000000 "#
b10101010000000 p"
b10101010000000 w"
b10000000 +#
b1010101 ,#
b0 Q"
b0 8"
b0 G"
b0 7"
b0 ?"
b1010101 S"
b101010100 s
b11111111 x
b10101010000000000000000000000000 B
b0 N#
b0 C#
b0 I
b0 ;#
b1000000000000000 u"
b1000000000000000 j"
b1000000000000000 G
b1000000000000000 b"
b1010101 s"
b1010101 i"
b1010101 F
b1010101 a"
b0 >"
b0 3"
b0 E
b0 +"
b1010101 <"
b1010101 2"
b1010101 D
b1010101 *"
b1010101 h
b1010101 ^
b1010101 >
b1010101 U
b11111111 i
b11111111 \
b11111111 :
b11111111 R
b10101010 #
b10101010 5
b100 "
b100 +
b100 -
b100000 P
b10000000000000000000000000000000 L
0(
b100 &
b100 )
b11111111 %
b11111111 .
b1010101 $
b1010101 ,
#455
1(
#460
0(
#465
1(
#470
0(
#475
1(
#480
0(
#485
1(
#490
0(
#495
1(
