verilog/simulationtest2.vcd
$date
	Mon Jun  7 15:32:08 2021
$end
$version
	Icarus Verilog
$end
$timescale
	100ms
$end
$scope module top $end
$var wire 1 ! Branch_Enable $end
$var wire 7 " AluCtl_wire [6:0] $end
$var wire 32 # ALUOut [31:0] $end
$var reg 32 $ A [31:0] $end
$var reg 32 % B [31:0] $end
$var reg 4 & FuncCode [3:0] $end
$var reg 7 ' Opcode [6:0] $end
$var reg 1 ( clk $end
$scope module aluCtrl_inst $end
$var wire 4 ) FuncCode [3:0] $end
$var wire 7 * Opcode [6:0] $end
$var reg 7 + ALUCtl [6:0] $end
$upscope $end
$scope module alu_inst $end
$var wire 32 , A [31:0] $end
$var wire 7 - ALUctl [6:0] $end
$var wire 32 . B [31:0] $end
$var wire 1 / clk $end
$var wire 32 0 mult3_O [31:0] $end
$var wire 32 1 mult2_O [31:0] $end
$var wire 32 2 mult1_O [31:0] $end
$var wire 32 3 add_O2 [31:0] $end
$var wire 32 4 add_O [31:0] $end
$var reg 32 5 ALUOut [31:0] $end
$var reg 1 ! Branch_Enable $end
$var reg 1 6 CE $end
$var reg 1 7 DEF $end
$var reg 16 8 add_A [15:0] $end
$var reg 16 9 add_A2 [15:0] $end
$var reg 16 : add_B [15:0] $end
$var reg 16 ; add_B2 [15:0] $end
$var reg 16 < add_C [15:0] $end
$var reg 16 = add_C2 [15:0] $end
$var reg 16 > add_D [15:0] $end
$var reg 16 ? add_D2 [15:0] $end
$var reg 1 @ add_addsubbot $end
$var reg 1 A add_addsubtop $end
$var reg 16 B mult1_A [15:0] $end
$var reg 16 C mult1_B [15:0] $end
$var reg 16 D mult2_A [15:0] $end
$var reg 16 E mult2_B [15:0] $end
$var reg 16 F mult3_A [15:0] $end
$var reg 16 G mult3_B [15:0] $end
$var reg 16 H mult_C [15:0] $end
$var reg 16 I mult_D [15:0] $end
$var reg 32 J sll_two_power_n [31:0] $end
$var reg 1 K xor_addsubbot $end
$var reg 1 L xor_addsubtop $end
$var integer 32 M i [31:0] $end
$scope module i_sbmac16_addsub $end
$var wire 16 N A [15:0] $end
$var wire 1 O ACCUMCI $end
$var wire 1 @ ADDSUBBOT $end
$var wire 1 A ADDSUBTOP $end
$var wire 1 P AHOLD $end
$var wire 16 Q B [15:0] $end
$var wire 1 R BHOLD $end
$var wire 16 S C [15:0] $end
$var wire 1 T CE $end
$var wire 1 U CHOLD $end
$var wire 1 V CI $end
$var wire 1 / CLK $end
$var wire 1 W CO $end
$var wire 16 X D [15:0] $end
$var wire 1 Y DHOLD $end
$var wire 1 Z HCI $end
$var wire 1 [ IRSTBOT $end
$var wire 1 \ IRSTTOP $end
$var wire 1 ] LCI $end
$var wire 1 ^ OHOLDBOT $end
$var wire 1 _ OHOLDTOP $end
$var wire 1 7 OLOADBOT $end
$var wire 1 7 OLOADTOP $end
$var wire 1 ` ORSTBOT $end
$var wire 1 a ORSTTOP $end
$var wire 16 b Oh [15:0] $end
$var wire 16 c Ol [15:0] $end
$var wire 1 d SIGNEXTIN $end
$var wire 1 e clock $end
$var wire 16 f iA [15:0] $end
$var wire 16 g iB [15:0] $end
$var wire 16 h iC [15:0] $end
$var wire 16 i iD [15:0] $end
$var wire 16 j iF [15:0] $end
$var wire 16 k iG [15:0] $end
$var wire 32 l iH [31:0] $end
$var wire 16 m iJ [15:0] $end
$var wire 16 n iK [15:0] $end
$var wire 16 o iQ [15:0] $end
$var wire 16 p iS [15:0] $end
$var wire 16 q iW [15:0] $end
$var wire 16 r iX [15:0] $end
$var wire 16 s iY [15:0] $end
$var wire 16 t iZ [15:0] $end
$var wire 16 u p_Al_Bl [15:0] $end
$var wire 16 v p_Al_Bh [15:0] $end
$var wire 16 w p_Ah_Bl [15:0] $end
$var wire 16 x p_Ah_Bh [15:0] $end
$var wire 16 y iR [15:0] $end
$var wire 16 z iP [15:0] $end
$var wire 32 { iL [31:0] $end
$var wire 24 | iK_e [23:0] $end
$var wire 24 } iJ_e [23:0] $end
$var wire 16 ~ YZ [15:0] $end
$var wire 16 !" XW [15:0] $end
$var wire 1 "" SIGNEXTOUT $end
$var wire 32 #" O [31:0] $end
$var wire 1 $" LCO $end
$var wire 16 %" Bl [15:0] $end
$var wire 16 &" Bh [15:0] $end
$var wire 16 '" Al [15:0] $end
$var wire 16 (" Ah [15:0] $end
$var wire 1 )" ACCUMCO $end
$var reg 16 *" rA [15:0] $end
$var reg 16 +" rB [15:0] $end
$var reg 16 ," rC [15:0] $end
$var reg 16 -" rD [15:0] $end
$var reg 16 ." rF [15:0] $end
$var reg 16 /" rG [15:0] $end
$var reg 32 0" rH [31:0] $end
$var reg 16 1" rJ [15:0] $end
$var reg 16 2" rK [15:0] $end
$var reg 16 3" rQ [15:0] $end
$var reg 16 4" rS [15:0] $end
$upscope $end
$scope module sb_mac16_mult1 $end
$var wire 16 5" A [15:0] $end
$var wire 1 7 ACCUMCI $end
$var wire 1 7 ADDSUBBOT $end
$var wire 1 7 ADDSUBTOP $end
$var wire 1 7 AHOLD $end
$var wire 16 6" B [15:0] $end
$var wire 1 7 BHOLD $end
$var wire 16 7" C [15:0] $end
$var wire 1 7 CE $end
$var wire 1 7 CHOLD $end
$var wire 1 7 CI $end
$var wire 1 / CLK $end
$var wire 1 8" CO $end
$var wire 16 9" D [15:0] $end
$var wire 1 7 DHOLD $end
$var wire 1 :" HCI $end
$var wire 1 7 IRSTBOT $end
$var wire 1 7 IRSTTOP $end
$var wire 1 ;" LCI $end
$var wire 1 7 OHOLDBOT $end
$var wire 1 7 OHOLDTOP $end
$var wire 1 7 OLOADBOT $end
$var wire 1 7 OLOADTOP $end
$var wire 1 7 ORSTBOT $end
$var wire 1 7 ORSTTOP $end
$var wire 1 7 SIGNEXTIN $end
$var wire 1 <" clock $end
$var wire 16 =" iA [15:0] $end
$var wire 16 >" iB [15:0] $end
$var wire 16 ?" iC [15:0] $end
$var wire 16 @" iD [15:0] $end
$var wire 16 A" iF [15:0] $end
$var wire 16 B" iG [15:0] $end
$var wire 32 C" iH [31:0] $end
$var wire 16 D" iJ [15:0] $end
$var wire 16 E" iK [15:0] $end
$var wire 16 F" iW [15:0] $end
$var wire 16 G" iX [15:0] $end
$var wire 16 H" iY [15:0] $end
$var wire 16 I" iZ [15:0] $end
$var wire 16 J" p_Al_Bl [15:0] $end
$var wire 16 K" p_Al_Bh [15:0] $end
$var wire 16 L" p_Ah_Bl [15:0] $end
$var wire 16 M" p_Ah_Bh [15:0] $end
$var wire 16 N" iS [15:0] $end
$var wire 16 O" iR [15:0] $end
$var wire 16 P" iQ [15:0] $end
$var wire 16 Q" iP [15:0] $end
$var wire 32 R" iL [31:0] $end
$var wire 24 S" iK_e [23:0] $end
$var wire 24 T" iJ_e [23:0] $end
$var wire 16 U" YZ [15:0] $end
$var wire 16 V" XW [15:0] $end
$var wire 1 W" SIGNEXTOUT $end
$var wire 16 X" Ol [15:0] $end
$var wire 16 Y" Oh [15:0] $end
$var wire 32 Z" O [31:0] $end
$var wire 1 [" LCO $end
$var wire 16 \" Bl [15:0] $end
$var wire 16 ]" Bh [15:0] $end
$var wire 16 ^" Al [15:0] $end
$var wire 16 _" Ah [15:0] $end
$var wire 1 `" ACCUMCO $end
$var reg 16 a" rA [15:0] $end
$var reg 16 b" rB [15:0] $end
$var reg 16 c" rC [15:0] $end
$var reg 16 d" rD [15:0] $end
$var reg 16 e" rF [15:0] $end
$var reg 16 f" rG [15:0] $end
$var reg 32 g" rH [31:0] $end
$var reg 16 h" rJ [15:0] $end
$var reg 16 i" rK [15:0] $end
$var reg 16 j" rQ [15:0] $end
$var reg 16 k" rS [15:0] $end
$upscope $end
$scope module sb_mac16_mult2 $end
$var wire 16 l" A [15:0] $end
$var wire 1 7 ACCUMCI $end
$var wire 1 7 ADDSUBBOT $end
$var wire 1 7 ADDSUBTOP $end
$var wire 1 7 AHOLD $end
$var wire 16 m" B [15:0] $end
$var wire 1 7 BHOLD $end
$var wire 16 n" C [15:0] $end
$var wire 1 7 CE $end
$var wire 1 7 CHOLD $end
$var wire 1 7 CI $end
$var wire 1 / CLK $end
$var wire 1 o" CO $end
$var wire 16 p" D [15:0] $end
$var wire 1 7 DHOLD $end
$var wire 1 q" HCI $end
$var wire 1 7 IRSTBOT $end
$var wire 1 7 IRSTTOP $end
$var wire 1 r" LCI $end
$var wire 1 7 OHOLDBOT $end
$var wire 1 7 OHOLDTOP $end
$var wire 1 7 OLOADBOT $end
$var wire 1 7 OLOADTOP $end
$var wire 1 7 ORSTBOT $end
$var wire 1 7 ORSTTOP $end
$var wire 1 7 SIGNEXTIN $end
$var wire 1 s" clock $end
$var wire 16 t" iA [15:0] $end
$var wire 16 u" iB [15:0] $end
$var wire 16 v" iC [15:0] $end
$var wire 16 w" iD [15:0] $end
$var wire 16 x" iF [15:0] $end
$var wire 16 y" iG [15:0] $end
$var wire 32 z" iH [31:0] $end
$var wire 16 {" iJ [15:0] $end
$var wire 16 |" iK [15:0] $end
$var wire 16 }" iW [15:0] $end
$var wire 16 ~" iX [15:0] $end
$var wire 16 !# iY [15:0] $end
$var wire 16 "# iZ [15:0] $end
$var wire 16 ## p_Al_Bl [15:0] $end
$var wire 16 $# p_Al_Bh [15:0] $end
$var wire 16 %# p_Ah_Bl [15:0] $end
$var wire 16 &# p_Ah_Bh [15:0] $end
$var wire 16 '# iS [15:0] $end
$var wire 16 (# iR [15:0] $end
$var wire 16 )# iQ [15:0] $end
$var wire 16 *# iP [15:0] $end
$var wire 32 +# iL [31:0] $end
$var wire 24 ,# iK_e [23:0] $end
$var wire 24 -# iJ_e [23:0] $end
$var wire 16 .# YZ [15:0] $end
$var wire 16 /# XW [15:0] $end
$var wire 1 0# SIGNEXTOUT $end
$var wire 16 1# Ol [15:0] $end
$var wire 16 2# Oh [15:0] $end
$var wire 32 3# O [31:0] $end
$var wire 1 4# LCO $end
$var wire 16 5# Bl [15:0] $end
$var wire 16 6# Bh [15:0] $end
$var wire 16 7# Al [15:0] $end
$var wire 16 8# Ah [15:0] $end
$var wire 1 9# ACCUMCO $end
$var reg 16 :# rA [15:0] $end
$var reg 16 ;# rB [15:0] $end
$var reg 16 <# rC [15:0] $end
$var reg 16 =# rD [15:0] $end
$var reg 16 ># rF [15:0] $end
$var reg 16 ?# rG [15:0] $end
$var reg 32 @# rH [31:0] $end
$var reg 16 A# rJ [15:0] $end
$var reg 16 B# rK [15:0] $end
$var reg 16 C# rQ [15:0] $end
$var reg 16 D# rS [15:0] $end
$upscope $end
$scope module sb_mac16_mult3 $end
$var wire 16 E# A [15:0] $end
$var wire 1 7 ACCUMCI $end
$var wire 1 7 ADDSUBBOT $end
$var wire 1 7 ADDSUBTOP $end
$var wire 1 7 AHOLD $end
$var wire 16 F# B [15:0] $end
$var wire 1 7 BHOLD $end
$var wire 16 G# C [15:0] $end
$var wire 1 7 CE $end
$var wire 1 7 CHOLD $end
$var wire 1 7 CI $end
$var wire 1 / CLK $end
$var wire 1 H# CO $end
$var wire 16 I# D [15:0] $end
$var wire 1 7 DHOLD $end
$var wire 1 J# HCI $end
$var wire 1 7 IRSTBOT $end
$var wire 1 7 IRSTTOP $end
$var wire 1 K# LCI $end
$var wire 1 7 OHOLDBOT $end
$var wire 1 7 OHOLDTOP $end
$var wire 1 7 OLOADBOT $end
$var wire 1 7 OLOADTOP $end
$var wire 1 7 ORSTBOT $end
$var wire 1 7 ORSTTOP $end
$var wire 1 7 SIGNEXTIN $end
$var wire 1 L# clock $end
$var wire 16 M# iA [15:0] $end
$var wire 16 N# iB [15:0] $end
$var wire 16 O# iC [15:0] $end
$var wire 16 P# iD [15:0] $end
$var wire 16 Q# iF [15:0] $end
$var wire 16 R# iG [15:0] $end
$var wire 32 S# iH [31:0] $end
$var wire 16 T# iJ [15:0] $end
$var wire 16 U# iK [15:0] $end
$var wire 16 V# iW [15:0] $end
$var wire 16 W# iX [15:0] $end
$var wire 16 X# iY [15:0] $end
$var wire 16 Y# iZ [15:0] $end
$var wire 16 Z# p_Al_Bl [15:0] $end
$var wire 16 [# p_Al_Bh [15:0] $end
$var wire 16 \# p_Ah_Bl [15:0] $end
$var wire 16 ]# p_Ah_Bh [15:0] $end
$var wire 16 ^# iS [15:0] $end
$var wire 16 _# iR [15:0] $end
$var wire 16 `# iQ [15:0] $end
$var wire 16 a# iP [15:0] $end
$var wire 32 b# iL [31:0] $end
$var wire 24 c# iK_e [23:0] $end
$var wire 24 d# iJ_e [23:0] $end
$var wire 16 e# YZ [15:0] $end
$var wire 16 f# XW [15:0] $end
$var wire 1 g# SIGNEXTOUT $end
$var wire 16 h# Ol [15:0] $end
$var wire 16 i# Oh [15:0] $end
$var wire 32 j# O [31:0] $end
$var wire 1 k# LCO $end
$var wire 16 l# Bl [15:0] $end
$var wire 16 m# Bh [15:0] $end
$var wire 16 n# Al [15:0] $end
$var wire 16 o# Ah [15:0] $end
$var wire 1 p# ACCUMCO $end
$var reg 16 q# rA [15:0] $end
$var reg 16 r# rB [15:0] $end
$var reg 16 s# rC [15:0] $end
$var reg 16 t# rD [15:0] $end
$var reg 16 u# rF [15:0] $end
$var reg 16 v# rG [15:0] $end
$var reg 32 w# rH [31:0] $end
$var reg 16 x# rJ [15:0] $end
$var reg 16 y# rK [15:0] $end
$var reg 16 z# rQ [15:0] $end
$var reg 16 {# rS [15:0] $end
$upscope $end
$scope module xor_sb_mac16_inst $end
$var wire 16 |# A [15:0] $end
$var wire 1 7 ACCUMCI $end
$var wire 1 K ADDSUBBOT $end
$var wire 1 L ADDSUBTOP $end
$var wire 1 7 AHOLD $end
$var wire 16 }# B [15:0] $end
$var wire 1 7 BHOLD $end
$var wire 16 ~# C [15:0] $end
$var wire 1 6 CE $end
$var wire 1 7 CHOLD $end
$var wire 1 7 CI $end
$var wire 1 / CLK $end
$var wire 1 !$ CO $end
$var wire 16 "$ D [15:0] $end
$var wire 1 7 DHOLD $end
$var wire 1 #$ HCI $end
$var wire 1 7 IRSTBOT $end
$var wire 1 7 IRSTTOP $end
$var wire 1 $$ LCI $end
$var wire 1 7 OHOLDBOT $end
$var wire 1 7 OHOLDTOP $end
$var wire 1 7 OLOADBOT $end
$var wire 1 7 OLOADTOP $end
$var wire 1 7 ORSTBOT $end
$var wire 1 7 ORSTTOP $end
$var wire 16 %$ Oh [15:0] $end
$var wire 16 &$ Ol [15:0] $end
$var wire 1 7 SIGNEXTIN $end
$var wire 1 '$ clock $end
$var wire 16 ($ iA [15:0] $end
$var wire 16 )$ iB [15:0] $end
$var wire 16 *$ iC [15:0] $end
$var wire 16 +$ iD [15:0] $end
$var wire 16 ,$ iF [15:0] $end
$var wire 16 -$ iG [15:0] $end
$var wire 32 .$ iH [31:0] $end
$var wire 16 /$ iJ [15:0] $end
$var wire 16 0$ iK [15:0] $end
$var wire 16 1$ iQ [15:0] $end
$var wire 16 2$ iS [15:0] $end
$var wire 16 3$ iW [15:0] $end
$var wire 16 4$ iX [15:0] $end
$var wire 16 5$ iY [15:0] $end
$var wire 16 6$ iZ [15:0] $end
$var wire 16 7$ p_Al_Bl [15:0] $end
$var wire 16 8$ p_Al_Bh [15:0] $end
$var wire 16 9$ p_Ah_Bl [15:0] $end
$var wire 16 :$ p_Ah_Bh [15:0] $end
$var wire 16 ;$ iR [15:0] $end
$var wire 16 <$ iP [15:0] $end
$var wire 32 =$ iL [31:0] $end
$var wire 24 >$ iK_e [23:0] $end
$var wire 24 ?$ iJ_e [23:0] $end
$var wire 16 @$ YZ [15:0] $end
$var wire 16 A$ XW [15:0] $end
$var wire 1 B$ SIGNEXTOUT $end
$var wire 32 C$ O [31:0] $end
$var wire 1 D$ LCO $end
$var wire 16 E$ Bl [15:0] $end
$var wire 16 F$ Bh [15:0] $end
$var wire 16 G$ Al [15:0] $end
$var wire 16 H$ Ah [15:0] $end
$var wire 1 I$ ACCUMCO $end
$var reg 16 J$ rA [15:0] $end
$var reg 16 K$ rB [15:0] $end
$var reg 16 L$ rC [15:0] $end
$var reg 16 M$ rD [15:0] $end
$var reg 16 N$ rF [15:0] $end
$var reg 16 O$ rG [15:0] $end
$var reg 32 P$ rH [31:0] $end
$var reg 16 Q$ rJ [15:0] $end
$var reg 16 R$ rK [15:0] $end
$var reg 16 S$ rQ [15:0] $end
$var reg 16 T$ rS [15:0] $end
$upscope $end
$upscope $end
$upscope $end
$enddefinitions $end
#0
$dumpvars
bx T$
bx S$
bx R$
bx Q$
bx P$
bx O$
bx N$
bx M$
bx L$
bx K$
bx J$
xI$
b0 H$
b0 G$
b0 F$
b0 E$
0D$
bx0000000000000000 C$
0B$
bx A$
b0 @$
b0 ?$
b0 >$
b0 =$
bx <$
b0 ;$
b0 :$
b0 9$
b0 8$
b0 7$
b0 6$
b0 5$
b0 4$
bx 3$
bx 2$
bx 1$
b0 0$
b0 /$
b0 .$
b0 -$
b0 ,$
b0 +$
bx *$
b0 )$
b0 ($
x'$
b0 &$
bx %$
0$$
0#$
b0 "$
x!$
bx ~#
b0 }#
b0 |#
bx {#
bx z#
bx y#
bx x#
bx w#
bx v#
bx u#
bx t#
bx s#
bx r#
bx q#
xp#
b0 o#
b0 n#
b0 m#
b1 l#
xk#
b0 j#
b0 i#
b0 h#
0g#
bx f#
bx e#
b0 d#
b0 c#
b0 b#
bx a#
bx `#
bx _#
bx ^#
b0 ]#
b0 \#
b0 [#
b0 Z#
b1 Y#
bx X#
b0 W#
bx V#
b0 U#
b0 T#
b0 S#
b0 R#
b0 Q#
b0 P#
b0 O#
b1 N#
b0 M#
xL#
0K#
0J#
b0 I#
xH#
b0 G#
b1 F#
b0 E#
bx D#
bx C#
bx B#
bx A#
bx @#
bx ?#
bx >#
bx =#
bx <#
bx ;#
bx :#
x9#
b0 8#
b0 7#
b0 6#
b0 5#
x4#
b0 3#
b0 2#
b0 1#
00#
bx /#
bx .#
b0 -#
b0 ,#
b0 +#
bx *#
bx )#
bx (#
bx '#
b0 &#
b0 %#
b0 $#
b0 ##
b0 "#
bx !#
b0 ~"
bx }"
b0 |"
b0 {"
b0 z"
b0 y"
b0 x"
b0 w"
b0 v"
b0 u"
b0 t"
xs"
0r"
0q"
b0 p"
xo"
b0 n"
b0 m"
b0 l"
bx k"
bx j"
bx i"
bx h"
bx g"
bx f"
bx e"
bx d"
bx c"
bx b"
bx a"
x`"
b0 _"
b0 ^"
b0 ]"
b1 \"
x["
b0 Z"
b0 Y"
b0 X"
0W"
bx V"
bx U"
b0 T"
b0 S"
b0 R"
bx Q"
bx P"
bx O"
bx N"
b0 M"
b0 L"
b0 K"
b0 J"
b1 I"
bx H"
b0 G"
bx F"
b0 E"
b0 D"
b0 C"
b0 B"
b0 A"
b0 @"
b0 ?"
b1 >"
b0 ="
x<"
0;"
0:"
b0 9"
x8"
b0 7"
b1 6"
b0 5"
bx 4"
bx 3"
bx 2"
bx 1"
bx 0"
bx /"
bx ."
bx -"
bx ,"
bx +"
bx *"
0)"
b0 ("
b0 '"
b0 &"
b0 %"
0$"
b0 #"
0""
b0 !"
b0 ~
b0 }
b0 |
b0 {
b0 z
b0 y
b0 x
b0 w
b0 v
b0 u
b0 t
b0 s
b0 r
b0 q
bx p
bx o
b0 n
b0 m
b0 l
b0 k
b0 j
b0 i
b0 h
b0 g
b0 f
xe
zd
b0 c
b0 b
za
z`
z_
z^
0]
z\
z[
0Z
zY
b0 X
0W
zV
zU
zT
b0 S
zR
b0 Q
zP
zO
b0 N
b100000 M
0L
0K
b1 J
b0 I
b0 H
b1 G
b0 F
b0 E
b0 D
b1 C
b0 B
0A
0@
b0 ?
b0 >
bx =
b0 <
b0 ;
b0 :
b0 9
b0 8
07
16
b0 5
b0 4
bx0000000000000000 3
b0 2
b0 1
b0 0
z/
b0 .
b1111 -
b0 ,
b1111 +
b0 *
b0 )
0(
b0 '
b0 &
b0 %
b0 $
b0 #
b1111 "
0!
$end
#5
1(
#10
0(
#15
1(
#20
0(
#25
1(
#30
0(
#35
1(
#40
0(
#45
1(
#50
b111100000 &$
b111100000 ;$
b111100000 @$
b111100000 5$
b111100000 +$
b111100000 ?
b111100000 "$
b111100000 3
b111100000 C$
b0 %$
b0 <$
0!$
b1100100 4
b1100100 #"
b1100100 c
b1100100 y
b111100000 1
b111100000 3#
b111100000 1#
b0 A$
0I$
b0 l#
b111100000 z"
b111100000 +#
b111100000 y"
b111100000 ##
b100000 5#
b1111 7#
b0 \"
b0 C"
b0 R"
b0 B"
b0 J"
b1111 ^"
b1100100 ~
b1010101 %"
b0 Y#
b0 N#
b0 G
b0 F#
b100000 "#
b100000 u"
b100000 E
b100000 m"
b1111 ~"
b1111 t"
b1111 D
b1111 l"
b0 I"
b0 >"
b0 C
b0 6"
b1111 G"
b1111 ="
b1111 B
b1111 5"
b0 3$
b0 *$
b0 =
b0 ~#
b1111 s
b1111 i
b1111 >
b1111 X
b1010101 t
b1010101 g
b1010101 :
b1010101 Q
b101 #
b101 5
b100000 M
b0 "
b0 +
b0 -
b1000000000000000000000 J
0(
b110011 '
b110011 *
b111 &
b111 )
b1010101 %
b1010101 .
b1111 $
b1111 ,
#55
1(
#60
0(
#65
1(
#70
0(
#75
1(
#80
0(
#85
1(
#90
0(
#95
1(
#100
b1111000000000000111100000 3
b1111000000000000111100000 C$
b111100000 %$
b111100000 <$
b111100000 A$
b111100000 3$
b111100000 *$
b111100000 =
b111100000 ~#
b1011111 #
b1011111 5
b100000 M
b1 "
b1 +
b1 -
0(
b110 &
b110 )
#105
1(
#110
0(
#115
1(
#120
0(
#125
1(
#130
0(
#135
1(
#140
0(
#145
1(
#150
b0 &$
b0 ;$
b10101011010000000000000000000 3
b10101011010000000000000000000 C$
b1010101101000 %$
b1010101101000 <$
b0 @$
b1010101101000 A$
b10011 H$
b10001000 G$
b0 5$
b0 +$
b0 ?
b0 "$
b1001110001000 4$
b1001110001000 ($
b1001110001000 9
b1001110001000 |#
b0 2#
b10011100010000000000000000000 2
b10011100010000000000000000000 Z"
b1001110001000 Y"
b10011101111111 4
b10011101111111 #"
b10011101111111 c
b10011101111111 y
b0 1
b0 3#
b0 1#
b10011100010000000000000000000 C"
b10011100010000000000000000000 R"
b10000000 m#
b0 5#
b0 ,#
b0 |"
b0 %#
b100111 8#
b0 z"
b0 +#
b0 y"
b0 ##
b10000 7#
b1001110000000 A"
b1001110000000 M"
b100000000000 T"
b100000000000 D"
b100000000000 K"
b10000000 ]"
b100111 _"
b10000 ^"
b10011101111111 ~
b1101111 %"
b1000000000000000 Y#
b1000000000000000 N#
b1000000000000000 G
b1000000000000000 F#
b0 "#
b0 u"
b0 E
b0 m"
b10011100010000 ~"
b10011100010000 t"
b10011100010000 D
b10011100010000 l"
b1000000000000000 I"
b1000000000000000 >"
b1000000000000000 C
b1000000000000000 6"
b10011100010000 G"
b10011100010000 ="
b10011100010000 B
b10011100010000 5"
b10011100010000 s
b10011100010000 i
b10011100010000 >
b10011100010000 X
b1101111 t
b1101111 g
b1101111 :
b1101111 Q
b10 "
b10 +
b10 -
b10011101111111 #
b10011101111111 5
b100000 M
b1000000000000000 J
0(
b0 &
b0 )
b1101111 %
b1101111 .
b10011100010000 $
b10011100010000 ,
#155
1(
#160
0(
#165
1(
#170
0(
#175
1(
#180
0(
#185
1(
#190
0(
#195
1(
#200
b10011100010000000000000000000 3
b10011100010000000000000000000 C$
b1001110001000 %$
b1001110001000 <$
b10011010100001 #
b10011010100001 5
b1101100101011110 ~
b10011010100001 c
b10011010100001 y
b1111111111111111 !"
b10011010100001 4
b10011010100001 #"
b0 b
b0 z
b1001110001000 A$
1W
1@
1A
b0 3$
b0 *$
b0 =
b0 ~#
b1010 "
b1010 +
b1010 -
0(
b1000 &
b1000 )
#205
1(
#210
0(
#215
1(
#220
0(
#225
1(
#230
0(
#235
1(
#240
0(
#245
1(
#250
b0 3
b0 C$
b0 %$
b0 <$
b0 A$
b0 H$
b0 G$
b0 4$
b0 ($
b0 9
b0 |#
b1111111111111111 b
b1111111111111111 z
0W
b0 2
b0 Z"
b0 Y"
b11111111111111111111111111111110 4
b11111111111111111111111111111110 #"
b1111111111111110 c
b1111111111111110 y
b0 !"
1)"
b0 C"
b0 R"
1Z
1$"
b0 m#
b100 l#
b0 8#
b0 7#
b0 T"
b0 D"
b0 K"
b0 ]"
b100 \"
b0 A"
b0 M"
b0 _"
b0 ^"
b1 ~
b10 %"
b100 Y#
b100 N#
b100 G
b100 F#
b0 ~"
b0 t"
b0 D
b0 l"
b100 I"
b100 >"
b100 C
b100 6"
b0 G"
b0 ="
b0 B
b0 5"
b0 s
b0 i
b0 >
b0 X
b10 t
b10 g
b10 :
b10 Q
1@
1A
b1 #
b1 5
b1011 "
b1011 +
b1011 -
b100 J
0(
b10 &
b10 )
b10 %
b10 .
b0 $
b0 ,
#255
1(
#260
0(
#265
1(
#270
0(
#275
1(
#280
0(
#285
1(
#290
0(
#295
1(
#300
b1000000 2
b1000000 Z"
b1000000 X"
b10010 ~
0Z
0$"
b10010 c
b10010 y
b0 !"
0)"
b10010 4
b10010 #"
b0 b
b0 z
b10000 7#
b1000000 C"
b1000000 R"
b1000000 B"
b1000000 J"
b10000 ^"
0W
b10000 ~"
b10000 t"
b10000 D
b10000 l"
b10000 G"
b10000 ="
b10000 B
b10000 5"
b10000 s
b10000 i
b10000 >
b10000 X
0@
0A
b100 #
b100 5
b11 "
b11 +
b11 -
0(
b101 &
b101 )
b10000 $
b10000 ,
#305
1(
#310
0(
#315
1(
#320
0(
#325
1(
#330
0(
#335
1(
#340
0(
#345
1(
#350
b1001 4
b1001 #"
b1001 c
b1001 y
b10000 2
b10000 Z"
b10000 X"
b10 l#
b1000 7#
b10 \"
b10000 C"
b10000 R"
b10000 B"
b10000 J"
b1000 ^"
b1001 ~
b1 %"
b10 Y#
b10 N#
b10 G
b10 F#
b1000 ~"
b1000 t"
b1000 D
b1000 l"
b10 I"
b10 >"
b10 C
b10 6"
b1000 G"
b1000 ="
b1000 B
b1000 5"
b1000 s
b1000 i
b1000 >
b1000 X
b1 t
b1 g
b1 :
b1 Q
b1000 "
b1000 +
b1000 -
b10 J
0(
b1101 &
b1101 )
b1 %
b1 .
b1000 $
b1000 ,
#355
1(
#360
0(
#365
1(
#370
0(
#375
1(
#380
0(
#385
1(
#390
0(
#395
1(
#400
b1000 4
b1000 #"
b1000 c
b1000 y
b1000 2
b1000 Z"
b1000 X"
b100 l#
b10 7#
b100 \"
b1000 C"
b1000 R"
b1000 B"
b1000 J"
b10 ^"
b1000 ~
b0 %"
b100 Y#
b100 N#
b100 G
b100 F#
b10 ~"
b10 t"
b10 D
b10 l"
b100 I"
b100 >"
b100 C
b100 6"
b10 G"
b10 ="
b10 B
b10 5"
b1000 s
b1000 i
b1000 >
b1000 X
b0 t
b0 g
b0 :
b0 Q
b1001 "
b1001 +
b1001 -
b1000 #
b1000 5
b100 J
0(
b1 &
b1 )
b10 %
b10 .
b10 $
b10 ,
#405
1(
#410
0(
#415
1(
#420
0(
#425
1(
#430
0(
#435
1(
#440
0(
#445
1(
#450
b1000000000000000 3
b1000000000000000 C$
b1000000000000000 &$
b1000000000000000 ;$
b1000000000000000 @$
b1000000000000000 5$
b1000000000000000 +$
b1000000000000000 ?
b1000000000000000 "$
b101010 2#
b1010101000000000000000 1
b1010101000000000000000 3#
b1000000000000000 1#
b101010100 4
b101010100 #"
b101010100 c
b101010100 y
b1010101000000000000000 z"
b1010101000000000000000 +#
b0 2
b0 Z"
b0 X"
b0 l#
b10101010000000 -#
b10101010000000 {"
b10101010000000 $#
b10000000 6#
b1010101 7#
b0 \"
b0 C"
b0 R"
b0 B"
b0 J"
b1010101 ^"
b101010100 ~
b11111111 %"
b0 Y#
b0 N#
b0 G
b0 F#
b1000000000000000 "#
b1000000000000000 u"
b1000000000000000 E
b1000000000000000 m"
b1010101 ~"
b1010101 t"
b1010101 D
b1010101 l"
b0 I"
b0 >"
b0 C
b0 6"
b1010101 G"
b1010101 ="
b1010101 B
b1010101 5"
b1010101 s
b1010101 i
b1010101 >
b1010101 X
b11111111 t
b11111111 g
b11111111 :
b11111111 Q
b10101010 #
b10101010 5
b100000 M
b100 "
b100 +
b100 -
b10000000000000000000000000000000 J
0(
b100 &
b100 )
b11111111 %
b11111111 .
b1010101 $
b1010101 ,
#455
1(
#460
0(
#465
1(
#470
0(
#475
1(
#480
0(
#485
1(
#490
0(
#495
1(
#500
b10 &$
b10 ;$
b1000000000000000 b
b1000000000000000 z
b10 @$
b1000000000000000 !"
1""
b10000000 ("
b1000000000000000 r
b1000000000000000 f
b1000000000000000 8
b1000000000000000 N
b10 5$
b10 +$
b10 ?
b10 "$
b100000000000000010 3
b100000000000000010 C$
b10 %$
b10 <$
b0 2#
b10000000000000000000000000000000 4
b10000000000000000000000000000000 #"
b0 c
b0 y
b10 1
b10 3#
b10 1#
b10 A$
b0 -#
b0 {"
b0 $#
b0 6#
b10 z"
b10 +#
b10 y"
b10 ##
b1 5#
b10 7#
b10 ^"
b0 ~
b0 %"
b1 "#
b1 u"
b1 E
b1 m"
b10 ~"
b10 t"
b10 D
b10 l"
b10 G"
b10 ="
b10 B
b10 5"
b10 3$
b10 *$
b10 =
b10 ~#
b0 s
b0 i
b0 >
b0 X
b0 t
b0 g
b0 :
b0 Q
b1001 "
b1001 +
b1001 -
b10000000000000000000000000000000 #
b10000000000000000000000000000000 5
b100000 M
b10000000000000000 J
0(
b1 &
b1 )
b10000 %
b10000 .
b10 $
b10 ,
#505
1(
#510
0(
#515
1(
#520
0(
#525
1(
#530
0(
#535
1(
#540
0(
#545
1(
