verilog/simulationtest2.vcd
$date
	Tue Jun  1 16:57:02 2021
$end
$version
	Icarus Verilog
$end
$timescale
	100ms
$end
$scope module top $end
$var wire 1 ! Branch_Enable $end
$var wire 7 " AluCtl_wire [6:0] $end
$var wire 32 # ALUOut [31:0] $end
$var reg 32 $ A [31:0] $end
$var reg 32 % B [31:0] $end
$var reg 4 & FuncCode [3:0] $end
$var reg 7 ' Opcode [6:0] $end
$var reg 1 ( clk $end
$scope module aluCtrl_inst $end
$var wire 4 ) FuncCode [3:0] $end
$var wire 7 * Opcode [6:0] $end
$var reg 7 + ALUCtl [6:0] $end
$upscope $end
$scope module alu_inst $end
$var wire 32 , A [31:0] $end
$var wire 7 - ALUctl [6:0] $end
$var wire 32 . B [31:0] $end
$var wire 1 / clk $end
$var wire 32 0 mult3_O [31:0] $end
$var wire 32 1 mult2_O [31:0] $end
$var wire 32 2 mult1_O [31:0] $end
$var wire 32 3 add_O2 [31:0] $end
$var wire 32 4 add_O [31:0] $end
$var reg 32 5 ALUOut [31:0] $end
$var reg 1 ! Branch_Enable $end
$var reg 1 6 CE $end
$var reg 1 7 DEF $end
$var reg 16 8 add_A [15:0] $end
$var reg 16 9 add_A2 [15:0] $end
$var reg 16 : add_B [15:0] $end
$var reg 16 ; add_B2 [15:0] $end
$var reg 16 < add_C [15:0] $end
$var reg 16 = add_C2 [15:0] $end
$var reg 16 > add_D [15:0] $end
$var reg 16 ? add_D2 [15:0] $end
$var reg 1 @ add_addsubbot $end
$var reg 1 A add_addsubtop $end
$var reg 16 B mult1_A [15:0] $end
$var reg 16 C mult1_B [15:0] $end
$var reg 16 D mult2_A [15:0] $end
$var reg 16 E mult2_B [15:0] $end
$var reg 16 F mult3_A [15:0] $end
$var reg 16 G mult3_B [15:0] $end
$var reg 16 H mult_C [15:0] $end
$var reg 16 I mult_D [15:0] $end
$var reg 32 J sll_two_power_n [31:0] $end
$var reg 1 K xor_addsubbot $end
$var reg 1 L xor_addsubtop $end
$scope module i_sbmac16_addsub $end
$var wire 16 M A [15:0] $end
$var wire 1 N ACCUMCI $end
$var wire 1 @ ADDSUBBOT $end
$var wire 1 A ADDSUBTOP $end
$var wire 1 O AHOLD $end
$var wire 16 P B [15:0] $end
$var wire 1 Q BHOLD $end
$var wire 16 R C [15:0] $end
$var wire 1 S CE $end
$var wire 1 T CHOLD $end
$var wire 1 U CI $end
$var wire 1 / CLK $end
$var wire 1 V CO $end
$var wire 16 W D [15:0] $end
$var wire 1 X DHOLD $end
$var wire 1 Y HCI $end
$var wire 1 Z IRSTBOT $end
$var wire 1 [ IRSTTOP $end
$var wire 1 \ LCI $end
$var wire 1 ] OHOLDBOT $end
$var wire 1 ^ OHOLDTOP $end
$var wire 1 7 OLOADBOT $end
$var wire 1 7 OLOADTOP $end
$var wire 1 _ ORSTBOT $end
$var wire 1 ` ORSTTOP $end
$var wire 16 a Oh [15:0] $end
$var wire 16 b Ol [15:0] $end
$var wire 1 c SIGNEXTIN $end
$var wire 1 d clock $end
$var wire 16 e iA [15:0] $end
$var wire 16 f iB [15:0] $end
$var wire 16 g iC [15:0] $end
$var wire 16 h iD [15:0] $end
$var wire 16 i iF [15:0] $end
$var wire 16 j iG [15:0] $end
$var wire 32 k iH [31:0] $end
$var wire 16 l iJ [15:0] $end
$var wire 16 m iK [15:0] $end
$var wire 16 n iQ [15:0] $end
$var wire 16 o iS [15:0] $end
$var wire 16 p iW [15:0] $end
$var wire 16 q iX [15:0] $end
$var wire 16 r iY [15:0] $end
$var wire 16 s iZ [15:0] $end
$var wire 16 t p_Al_Bl [15:0] $end
$var wire 16 u p_Al_Bh [15:0] $end
$var wire 16 v p_Ah_Bl [15:0] $end
$var wire 16 w p_Ah_Bh [15:0] $end
$var wire 16 x iR [15:0] $end
$var wire 16 y iP [15:0] $end
$var wire 32 z iL [31:0] $end
$var wire 24 { iK_e [23:0] $end
$var wire 24 | iJ_e [23:0] $end
$var wire 16 } YZ [15:0] $end
$var wire 16 ~ XW [15:0] $end
$var wire 1 !" SIGNEXTOUT $end
$var wire 32 "" O [31:0] $end
$var wire 1 #" LCO $end
$var wire 16 $" Bl [15:0] $end
$var wire 16 %" Bh [15:0] $end
$var wire 16 &" Al [15:0] $end
$var wire 16 '" Ah [15:0] $end
$var wire 1 (" ACCUMCO $end
$var reg 16 )" rA [15:0] $end
$var reg 16 *" rB [15:0] $end
$var reg 16 +" rC [15:0] $end
$var reg 16 ," rD [15:0] $end
$var reg 16 -" rF [15:0] $end
$var reg 16 ." rG [15:0] $end
$var reg 32 /" rH [31:0] $end
$var reg 16 0" rJ [15:0] $end
$var reg 16 1" rK [15:0] $end
$var reg 16 2" rQ [15:0] $end
$var reg 16 3" rS [15:0] $end
$upscope $end
$scope module sb_mac16_mult1 $end
$var wire 16 4" A [15:0] $end
$var wire 1 7 ACCUMCI $end
$var wire 1 7 ADDSUBBOT $end
$var wire 1 7 ADDSUBTOP $end
$var wire 1 7 AHOLD $end
$var wire 16 5" B [15:0] $end
$var wire 1 7 BHOLD $end
$var wire 16 6" C [15:0] $end
$var wire 1 7 CE $end
$var wire 1 7 CHOLD $end
$var wire 1 7 CI $end
$var wire 1 / CLK $end
$var wire 1 7" CO $end
$var wire 16 8" D [15:0] $end
$var wire 1 7 DHOLD $end
$var wire 1 9" HCI $end
$var wire 1 7 IRSTBOT $end
$var wire 1 7 IRSTTOP $end
$var wire 1 :" LCI $end
$var wire 1 7 OHOLDBOT $end
$var wire 1 7 OHOLDTOP $end
$var wire 1 7 OLOADBOT $end
$var wire 1 7 OLOADTOP $end
$var wire 1 7 ORSTBOT $end
$var wire 1 7 ORSTTOP $end
$var wire 1 7 SIGNEXTIN $end
$var wire 1 ;" clock $end
$var wire 16 <" iA [15:0] $end
$var wire 16 =" iB [15:0] $end
$var wire 16 >" iC [15:0] $end
$var wire 16 ?" iD [15:0] $end
$var wire 16 @" iF [15:0] $end
$var wire 16 A" iG [15:0] $end
$var wire 32 B" iH [31:0] $end
$var wire 16 C" iJ [15:0] $end
$var wire 16 D" iK [15:0] $end
$var wire 16 E" iW [15:0] $end
$var wire 16 F" iX [15:0] $end
$var wire 16 G" iY [15:0] $end
$var wire 16 H" iZ [15:0] $end
$var wire 16 I" p_Al_Bl [15:0] $end
$var wire 16 J" p_Al_Bh [15:0] $end
$var wire 16 K" p_Ah_Bl [15:0] $end
$var wire 16 L" p_Ah_Bh [15:0] $end
$var wire 16 M" iS [15:0] $end
$var wire 16 N" iR [15:0] $end
$var wire 16 O" iQ [15:0] $end
$var wire 16 P" iP [15:0] $end
$var wire 32 Q" iL [31:0] $end
$var wire 24 R" iK_e [23:0] $end
$var wire 24 S" iJ_e [23:0] $end
$var wire 16 T" YZ [15:0] $end
$var wire 16 U" XW [15:0] $end
$var wire 1 V" SIGNEXTOUT $end
$var wire 16 W" Ol [15:0] $end
$var wire 16 X" Oh [15:0] $end
$var wire 32 Y" O [31:0] $end
$var wire 1 Z" LCO $end
$var wire 16 [" Bl [15:0] $end
$var wire 16 \" Bh [15:0] $end
$var wire 16 ]" Al [15:0] $end
$var wire 16 ^" Ah [15:0] $end
$var wire 1 _" ACCUMCO $end
$var reg 16 `" rA [15:0] $end
$var reg 16 a" rB [15:0] $end
$var reg 16 b" rC [15:0] $end
$var reg 16 c" rD [15:0] $end
$var reg 16 d" rF [15:0] $end
$var reg 16 e" rG [15:0] $end
$var reg 32 f" rH [31:0] $end
$var reg 16 g" rJ [15:0] $end
$var reg 16 h" rK [15:0] $end
$var reg 16 i" rQ [15:0] $end
$var reg 16 j" rS [15:0] $end
$upscope $end
$scope module sb_mac16_mult2 $end
$var wire 16 k" A [15:0] $end
$var wire 1 7 ACCUMCI $end
$var wire 1 7 ADDSUBBOT $end
$var wire 1 7 ADDSUBTOP $end
$var wire 1 7 AHOLD $end
$var wire 16 l" B [15:0] $end
$var wire 1 7 BHOLD $end
$var wire 16 m" C [15:0] $end
$var wire 1 7 CE $end
$var wire 1 7 CHOLD $end
$var wire 1 7 CI $end
$var wire 1 / CLK $end
$var wire 1 n" CO $end
$var wire 16 o" D [15:0] $end
$var wire 1 7 DHOLD $end
$var wire 1 p" HCI $end
$var wire 1 7 IRSTBOT $end
$var wire 1 7 IRSTTOP $end
$var wire 1 q" LCI $end
$var wire 1 7 OHOLDBOT $end
$var wire 1 7 OHOLDTOP $end
$var wire 1 7 OLOADBOT $end
$var wire 1 7 OLOADTOP $end
$var wire 1 7 ORSTBOT $end
$var wire 1 7 ORSTTOP $end
$var wire 1 7 SIGNEXTIN $end
$var wire 1 r" clock $end
$var wire 16 s" iA [15:0] $end
$var wire 16 t" iB [15:0] $end
$var wire 16 u" iC [15:0] $end
$var wire 16 v" iD [15:0] $end
$var wire 16 w" iF [15:0] $end
$var wire 16 x" iG [15:0] $end
$var wire 32 y" iH [31:0] $end
$var wire 16 z" iJ [15:0] $end
$var wire 16 {" iK [15:0] $end
$var wire 16 |" iW [15:0] $end
$var wire 16 }" iX [15:0] $end
$var wire 16 ~" iY [15:0] $end
$var wire 16 !# iZ [15:0] $end
$var wire 16 "# p_Al_Bl [15:0] $end
$var wire 16 ## p_Al_Bh [15:0] $end
$var wire 16 $# p_Ah_Bl [15:0] $end
$var wire 16 %# p_Ah_Bh [15:0] $end
$var wire 16 &# iS [15:0] $end
$var wire 16 '# iR [15:0] $end
$var wire 16 (# iQ [15:0] $end
$var wire 16 )# iP [15:0] $end
$var wire 32 *# iL [31:0] $end
$var wire 24 +# iK_e [23:0] $end
$var wire 24 ,# iJ_e [23:0] $end
$var wire 16 -# YZ [15:0] $end
$var wire 16 .# XW [15:0] $end
$var wire 1 /# SIGNEXTOUT $end
$var wire 16 0# Ol [15:0] $end
$var wire 16 1# Oh [15:0] $end
$var wire 32 2# O [31:0] $end
$var wire 1 3# LCO $end
$var wire 16 4# Bl [15:0] $end
$var wire 16 5# Bh [15:0] $end
$var wire 16 6# Al [15:0] $end
$var wire 16 7# Ah [15:0] $end
$var wire 1 8# ACCUMCO $end
$var reg 16 9# rA [15:0] $end
$var reg 16 :# rB [15:0] $end
$var reg 16 ;# rC [15:0] $end
$var reg 16 <# rD [15:0] $end
$var reg 16 =# rF [15:0] $end
$var reg 16 ># rG [15:0] $end
$var reg 32 ?# rH [31:0] $end
$var reg 16 @# rJ [15:0] $end
$var reg 16 A# rK [15:0] $end
$var reg 16 B# rQ [15:0] $end
$var reg 16 C# rS [15:0] $end
$upscope $end
$scope module sb_mac16_mult3 $end
$var wire 16 D# A [15:0] $end
$var wire 1 7 ACCUMCI $end
$var wire 1 7 ADDSUBBOT $end
$var wire 1 7 ADDSUBTOP $end
$var wire 1 7 AHOLD $end
$var wire 16 E# B [15:0] $end
$var wire 1 7 BHOLD $end
$var wire 16 F# C [15:0] $end
$var wire 1 7 CE $end
$var wire 1 7 CHOLD $end
$var wire 1 7 CI $end
$var wire 1 / CLK $end
$var wire 1 G# CO $end
$var wire 16 H# D [15:0] $end
$var wire 1 7 DHOLD $end
$var wire 1 I# HCI $end
$var wire 1 7 IRSTBOT $end
$var wire 1 7 IRSTTOP $end
$var wire 1 J# LCI $end
$var wire 1 7 OHOLDBOT $end
$var wire 1 7 OHOLDTOP $end
$var wire 1 7 OLOADBOT $end
$var wire 1 7 OLOADTOP $end
$var wire 1 7 ORSTBOT $end
$var wire 1 7 ORSTTOP $end
$var wire 1 7 SIGNEXTIN $end
$var wire 1 K# clock $end
$var wire 16 L# iA [15:0] $end
$var wire 16 M# iB [15:0] $end
$var wire 16 N# iC [15:0] $end
$var wire 16 O# iD [15:0] $end
$var wire 16 P# iF [15:0] $end
$var wire 16 Q# iG [15:0] $end
$var wire 32 R# iH [31:0] $end
$var wire 16 S# iJ [15:0] $end
$var wire 16 T# iK [15:0] $end
$var wire 16 U# iW [15:0] $end
$var wire 16 V# iX [15:0] $end
$var wire 16 W# iY [15:0] $end
$var wire 16 X# iZ [15:0] $end
$var wire 16 Y# p_Al_Bl [15:0] $end
$var wire 16 Z# p_Al_Bh [15:0] $end
$var wire 16 [# p_Ah_Bl [15:0] $end
$var wire 16 \# p_Ah_Bh [15:0] $end
$var wire 16 ]# iS [15:0] $end
$var wire 16 ^# iR [15:0] $end
$var wire 16 _# iQ [15:0] $end
$var wire 16 `# iP [15:0] $end
$var wire 32 a# iL [31:0] $end
$var wire 24 b# iK_e [23:0] $end
$var wire 24 c# iJ_e [23:0] $end
$var wire 16 d# YZ [15:0] $end
$var wire 16 e# XW [15:0] $end
$var wire 1 f# SIGNEXTOUT $end
$var wire 16 g# Ol [15:0] $end
$var wire 16 h# Oh [15:0] $end
$var wire 32 i# O [31:0] $end
$var wire 1 j# LCO $end
$var wire 16 k# Bl [15:0] $end
$var wire 16 l# Bh [15:0] $end
$var wire 16 m# Al [15:0] $end
$var wire 16 n# Ah [15:0] $end
$var wire 1 o# ACCUMCO $end
$var reg 16 p# rA [15:0] $end
$var reg 16 q# rB [15:0] $end
$var reg 16 r# rC [15:0] $end
$var reg 16 s# rD [15:0] $end
$var reg 16 t# rF [15:0] $end
$var reg 16 u# rG [15:0] $end
$var reg 32 v# rH [31:0] $end
$var reg 16 w# rJ [15:0] $end
$var reg 16 x# rK [15:0] $end
$var reg 16 y# rQ [15:0] $end
$var reg 16 z# rS [15:0] $end
$upscope $end
$scope module xor_sb_mac16_inst $end
$var wire 16 {# A [15:0] $end
$var wire 1 7 ACCUMCI $end
$var wire 1 K ADDSUBBOT $end
$var wire 1 L ADDSUBTOP $end
$var wire 1 7 AHOLD $end
$var wire 16 |# B [15:0] $end
$var wire 1 7 BHOLD $end
$var wire 16 }# C [15:0] $end
$var wire 1 6 CE $end
$var wire 1 7 CHOLD $end
$var wire 1 7 CI $end
$var wire 1 / CLK $end
$var wire 1 ~# CO $end
$var wire 16 !$ D [15:0] $end
$var wire 1 7 DHOLD $end
$var wire 1 "$ HCI $end
$var wire 1 7 IRSTBOT $end
$var wire 1 7 IRSTTOP $end
$var wire 1 #$ LCI $end
$var wire 1 7 OHOLDBOT $end
$var wire 1 7 OHOLDTOP $end
$var wire 1 7 OLOADBOT $end
$var wire 1 7 OLOADTOP $end
$var wire 1 7 ORSTBOT $end
$var wire 1 7 ORSTTOP $end
$var wire 16 $$ Oh [15:0] $end
$var wire 16 %$ Ol [15:0] $end
$var wire 1 7 SIGNEXTIN $end
$var wire 1 &$ clock $end
$var wire 16 '$ iA [15:0] $end
$var wire 16 ($ iB [15:0] $end
$var wire 16 )$ iC [15:0] $end
$var wire 16 *$ iD [15:0] $end
$var wire 16 +$ iF [15:0] $end
$var wire 16 ,$ iG [15:0] $end
$var wire 32 -$ iH [31:0] $end
$var wire 16 .$ iJ [15:0] $end
$var wire 16 /$ iK [15:0] $end
$var wire 16 0$ iQ [15:0] $end
$var wire 16 1$ iS [15:0] $end
$var wire 16 2$ iW [15:0] $end
$var wire 16 3$ iX [15:0] $end
$var wire 16 4$ iY [15:0] $end
$var wire 16 5$ iZ [15:0] $end
$var wire 16 6$ p_Al_Bl [15:0] $end
$var wire 16 7$ p_Al_Bh [15:0] $end
$var wire 16 8$ p_Ah_Bl [15:0] $end
$var wire 16 9$ p_Ah_Bh [15:0] $end
$var wire 16 :$ iR [15:0] $end
$var wire 16 ;$ iP [15:0] $end
$var wire 32 <$ iL [31:0] $end
$var wire 24 =$ iK_e [23:0] $end
$var wire 24 >$ iJ_e [23:0] $end
$var wire 16 ?$ YZ [15:0] $end
$var wire 16 @$ XW [15:0] $end
$var wire 1 A$ SIGNEXTOUT $end
$var wire 32 B$ O [31:0] $end
$var wire 1 C$ LCO $end
$var wire 16 D$ Bl [15:0] $end
$var wire 16 E$ Bh [15:0] $end
$var wire 16 F$ Al [15:0] $end
$var wire 16 G$ Ah [15:0] $end
$var wire 1 H$ ACCUMCO $end
$var reg 16 I$ rA [15:0] $end
$var reg 16 J$ rB [15:0] $end
$var reg 16 K$ rC [15:0] $end
$var reg 16 L$ rD [15:0] $end
$var reg 16 M$ rF [15:0] $end
$var reg 16 N$ rG [15:0] $end
$var reg 32 O$ rH [31:0] $end
$var reg 16 P$ rJ [15:0] $end
$var reg 16 Q$ rK [15:0] $end
$var reg 16 R$ rQ [15:0] $end
$var reg 16 S$ rS [15:0] $end
$upscope $end
$upscope $end
$upscope $end
$enddefinitions $end
#0
$dumpvars
bx S$
bx R$
bx Q$
bx P$
bx O$
bx N$
bx M$
bx L$
bx K$
bx J$
bx I$
xH$
b0 G$
b0 F$
b0 E$
b0 D$
0C$
bx0000000000000000 B$
0A$
bx @$
b0 ?$
b0 >$
b0 =$
b0 <$
bx ;$
b0 :$
b0 9$
b0 8$
b0 7$
b0 6$
b0 5$
b0 4$
b0 3$
bx 2$
bx 1$
bx 0$
b0 /$
b0 .$
b0 -$
b0 ,$
b0 +$
b0 *$
bx )$
b0 ($
b0 '$
x&$
b0 %$
bx $$
0#$
0"$
b0 !$
x~#
bx }#
b0 |#
b0 {#
bx z#
bx y#
bx x#
bx w#
bx v#
bx u#
bx t#
bx s#
bx r#
bx q#
bx p#
xo#
b0 n#
b0 m#
b0 l#
b1 k#
xj#
b0 i#
b0 h#
b0 g#
0f#
bx e#
bx d#
b0 c#
b0 b#
b0 a#
bx `#
bx _#
bx ^#
bx ]#
b0 \#
b0 [#
b0 Z#
b0 Y#
b1 X#
bx W#
b0 V#
bx U#
b0 T#
b0 S#
b0 R#
b0 Q#
b0 P#
b0 O#
b0 N#
b1 M#
b0 L#
xK#
0J#
0I#
b0 H#
xG#
b0 F#
b1 E#
b0 D#
bx C#
bx B#
bx A#
bx @#
bx ?#
bx >#
bx =#
bx <#
bx ;#
bx :#
bx 9#
x8#
b0 7#
b0 6#
b0 5#
b0 4#
x3#
b0 2#
b0 1#
b0 0#
0/#
bx .#
bx -#
b0 ,#
b0 +#
b0 *#
bx )#
bx (#
bx '#
bx &#
b0 %#
b0 $#
b0 ##
b0 "#
b0 !#
bx ~"
b0 }"
bx |"
b0 {"
b0 z"
b0 y"
b0 x"
b0 w"
b0 v"
b0 u"
b0 t"
b0 s"
xr"
0q"
0p"
b0 o"
xn"
b0 m"
b0 l"
b0 k"
bx j"
bx i"
bx h"
bx g"
bx f"
bx e"
bx d"
bx c"
bx b"
bx a"
bx `"
x_"
b0 ^"
b0 ]"
b0 \"
b1 ["
xZ"
b0 Y"
b0 X"
b0 W"
0V"
bx U"
bx T"
b0 S"
b0 R"
b0 Q"
bx P"
bx O"
bx N"
bx M"
b0 L"
b0 K"
b0 J"
b0 I"
b1 H"
bx G"
b0 F"
bx E"
b0 D"
b0 C"
b0 B"
b0 A"
b0 @"
b0 ?"
b0 >"
b1 ="
b0 <"
x;"
0:"
09"
b0 8"
x7"
b0 6"
b1 5"
b0 4"
bx 3"
bx 2"
bx 1"
bx 0"
bx /"
bx ."
bx -"
bx ,"
bx +"
bx *"
bx )"
x("
b0xxxxxxxx '"
b0xxxxxxxx &"
b0xxxxxxxx %"
b0xxxxxxxx $"
x#"
bx ""
x!"
bx ~
bx }
b0xxxxxxxxxxxxxxxx |
b0xxxxxxxxxxxxxxxx {
bx z
bx y
bx x
bx w
bx v
bx u
bx t
bx s
bx r
bx q
bx p
bx o
bx n
bx m
bx l
bx k
bx j
bx i
bx h
bx g
bx f
bx e
xd
zc
bx b
bx a
z`
z_
z^
z]
0\
z[
zZ
xY
zX
bx W
xV
zU
zT
zS
bx R
zQ
bx P
zO
zN
bx M
0L
0K
b1 J
b0 I
b0 H
b1 G
b0 F
b0 E
b0 D
b1 C
b0 B
xA
x@
b0 ?
bx >
bx =
bx <
b0 ;
bx :
b0 9
bx 8
07
16
b0 5
bx 4
bx0000000000000000 3
b0 2
b0 1
b0 0
z/
b0 .
b1111 -
b0 ,
b1111 +
b0 *
b0 )
0(
b0 '
b0 &
b0 %
b0 $
b0 #
b1111 "
0!
$end
#5
1(
#10
0(
#15
1(
#20
0(
#25
1(
#30
0(
#35
1(
#40
0(
#45
1(
#50
b111100000 %$
b111100000 :$
b111100000 ?$
b111100000 4$
b111100000 *$
b111100000 ?
b111100000 !$
b111100000 3
b111100000 B$
b0 $$
b0 ;$
0~#
b111100000 1
b111100000 2#
b111100000 0#
b0 @$
0H$
b0 k#
b111100000 y"
b111100000 *#
b111100000 x"
b111100000 "#
b100000 4#
b1111 6#
b0 ["
b0 B"
b0 Q"
b0 A"
b0 I"
b1111 ]"
b0 X#
b0 M#
b0 G
b0 E#
b100000 !#
b100000 t"
b100000 E
b100000 l"
b1111 }"
b1111 s"
b1111 D
b1111 k"
b0 H"
b0 ="
b0 C
b0 5"
b1111 F"
b1111 <"
b1111 B
b1111 4"
b0 2$
b0 )$
b0 =
b0 }#
b101 #
b101 5
b0 "
b0 +
b0 -
b1000000000000000000000 J
0(
b110011 '
b110011 *
b111 &
b111 )
b1010101 %
b1010101 .
b1111 $
b1111 ,
#55
1(
#60
0(
#65
1(
#70
0(
#75
1(
#80
0(
#85
1(
#90
0(
#95
1(
#100
b1111000000000000111100000 3
b1111000000000000111100000 B$
b111100000 $$
b111100000 ;$
b111100000 @$
b111100000 2$
b111100000 )$
b111100000 =
b111100000 }#
b1011111 #
b1011111 5
b1 "
b1 +
b1 -
0(
b110 &
b110 )
#105
1(
#110
0(
#115
1(
#120
0(
#125
1(
#130
0(
#135
1(
#140
0(
#145
1(
#150
b0 %$
b0 :$
b10101011010000000000000000000 3
b10101011010000000000000000000 B$
b1010101101000 $$
b1010101101000 ;$
b0 ?$
b1010101101000 @$
b10011 G$
b10001000 F$
b0 4$
b0 *$
b0 ?
b0 !$
b1001110001000 3$
b1001110001000 '$
b1001110001000 9
b1001110001000 {#
b0 a
b0 y
b10011101111111 4
b10011101111111 ""
b10011101111111 b
b10011101111111 x
0V
b0 k
b0 z
b0 ~
0("
b0 1#
b10011100010000000000000000000 2
b10011100010000000000000000000 Y"
b1001110001000 X"
b0 |
b0 l
b0 u
b0 {
b0 m
b0 v
b10011101111111 }
0Y
0#"
b0 1
b0 2#
b0 0#
b10011100010000000000000000000 B"
b10011100010000000000000000000 Q"
0!"
b0 i
b0 w
b0 '"
b0 j
b0 t
b0 &"
b0 %"
b1101111 $"
b10000000 l#
b0 4#
b0 +#
b0 {"
b0 $#
b100111 7#
b0 y"
b0 *#
b0 x"
b0 "#
b10000 6#
b1001110000000 @"
b1001110000000 L"
b100000000000 S"
b100000000000 C"
b100000000000 J"
b10000000 \"
b100111 ^"
b10000 ]"
b10011100010000 r
b10011100010000 h
b10011100010000 >
b10011100010000 W
b0 q
b0 e
b0 8
b0 M
b1101111 s
b1101111 f
b1101111 :
b1101111 P
b0 p
b0 g
b0 <
b0 R
0@
0A
b1000000000000000 X#
b1000000000000000 M#
b1000000000000000 G
b1000000000000000 E#
b0 !#
b0 t"
b0 E
b0 l"
b10011100010000 }"
b10011100010000 s"
b10011100010000 D
b10011100010000 k"
b1000000000000000 H"
b1000000000000000 ="
b1000000000000000 C
b1000000000000000 5"
b10011100010000 F"
b10011100010000 <"
b10011100010000 B
b10011100010000 4"
b10 "
b10 +
b10 -
b10011101111111 #
b10011101111111 5
b1000000000000000 J
0(
b0 &
b0 )
b1101111 %
b1101111 .
b10011100010000 $
b10011100010000 ,
#155
1(
#160
0(
#165
1(
#170
0(
#175
1(
#180
0(
#185
1(
#190
0(
#195
1(
#200
b10011100010000000000000000000 3
b10011100010000000000000000000 B$
b1001110001000 $$
b1001110001000 ;$
b10011010100001 #
b10011010100001 5
b1101100101011110 }
b10011010100001 b
b10011010100001 x
b1111111111111111 ~
b10011010100001 4
b10011010100001 ""
b0 a
b0 y
b1001110001000 @$
1V
1@
1A
b0 2$
b0 )$
b0 =
b0 }#
b1010 "
b1010 +
b1010 -
0(
b1000 &
b1000 )
#205
1(
#210
0(
#215
1(
#220
0(
#225
1(
#230
0(
#235
1(
#240
0(
#245
1(
#250
b0 3
b0 B$
b0 $$
b0 ;$
b0 @$
b0 G$
b0 F$
b0 3$
b0 '$
b0 9
b0 {#
b1111111111111111 a
b1111111111111111 y
0V
b0 ~
1("
b11111111111111111111111111111110 4
b11111111111111111111111111111110 ""
b1111111111111110 b
b1111111111111110 x
b0 2
b0 Y"
b0 X"
1Y
1#"
b0 B"
b0 Q"
b1 }
b10 $"
b0 l#
b100 k#
b0 7#
b0 6#
b0 S"
b0 C"
b0 J"
b0 \"
b100 ["
b0 @"
b0 L"
b0 ^"
b0 ]"
b0 r
b0 h
b0 >
b0 W
b10 s
b10 f
b10 :
b10 P
b100 X#
b100 M#
b100 G
b100 E#
b0 }"
b0 s"
b0 D
b0 k"
b100 H"
b100 ="
b100 C
b100 5"
b0 F"
b0 <"
b0 B
b0 4"
b1 #
b1 5
b1011 "
b1011 +
b1011 -
b100 J
0(
b10 &
b10 )
b10 %
b10 .
b0 $
b0 ,
#255
1(
#260
0(
#265
1(
#270
0(
#275
1(
#280
0(
#285
1(
#290
0(
#295
1(
#300
b1000000 2
b1000000 Y"
b1000000 W"
b10000 6#
b1000000 B"
b1000000 Q"
b1000000 A"
b1000000 I"
b10000 ]"
b10000 }"
b10000 s"
b10000 D
b10000 k"
b10000 F"
b10000 <"
b10000 B
b10000 4"
b11 "
b11 +
b11 -
b100 #
b100 5
0(
b101 &
b101 )
b10000 $
b10000 ,
#305
1(
#310
0(
#315
1(
#320
0(
#325
1(
#330
0(
#335
1(
#340
0(
#345
1(
#350
b10000 2
b10000 Y"
b10000 W"
b10 k#
b1000 6#
b10 ["
b10000 B"
b10000 Q"
b10000 A"
b10000 I"
b1000 ]"
b10 X#
b10 M#
b10 G
b10 E#
b1000 }"
b1000 s"
b1000 D
b1000 k"
b10 H"
b10 ="
b10 C
b10 5"
b1000 F"
b1000 <"
b1000 B
b1000 4"
b1000 "
b1000 +
b1000 -
b10 J
0(
b1101 &
b1101 )
b1 %
b1 .
b1000 $
b1000 ,
#355
1(
#360
0(
#365
1(
#370
0(
#375
1(
#380
0(
#385
1(
#390
0(
#395
1(
#400
b1000 2
b1000 Y"
b1000 W"
b100 k#
b10 6#
b100 ["
b1000 B"
b1000 Q"
b1000 A"
b1000 I"
b10 ]"
b100 X#
b100 M#
b100 G
b100 E#
b10 }"
b10 s"
b10 D
b10 k"
b100 H"
b100 ="
b100 C
b100 5"
b10 F"
b10 <"
b10 B
b10 4"
b1001 "
b1001 +
b1001 -
b1000 #
b1000 5
b100 J
0(
b1 &
b1 )
b10 %
b10 .
b10 $
b10 ,
#405
1(
#410
0(
#415
1(
#420
0(
#425
1(
#430
0(
#435
1(
#440
0(
#445
1(
#450
b1000000000000000 3
b1000000000000000 B$
b1000000000000000 %$
b1000000000000000 :$
b1000000000000000 ?$
b1000000000000000 4$
b1000000000000000 *$
b1000000000000000 ?
b1000000000000000 !$
b101010 1#
b1010101000000000000000 1
b1010101000000000000000 2#
b1000000000000000 0#
b1010101000000000000000 y"
b1010101000000000000000 *#
b0 2
b0 Y"
b0 W"
b0 k#
b10101010000000 ,#
b10101010000000 z"
b10101010000000 ##
b10000000 5#
b1010101 6#
b0 ["
b0 B"
b0 Q"
b0 A"
b0 I"
b1010101 ]"
b0 X#
b0 M#
b0 G
b0 E#
b1000000000000000 !#
b1000000000000000 t"
b1000000000000000 E
b1000000000000000 l"
b1010101 }"
b1010101 s"
b1010101 D
b1010101 k"
b0 H"
b0 ="
b0 C
b0 5"
b1010101 F"
b1010101 <"
b1010101 B
b1010101 4"
b10101010 #
b10101010 5
b100 "
b100 +
b100 -
b10000000000000000000000000000000 J
0(
b100 &
b100 )
b11111111 %
b11111111 .
b1010101 $
b1010101 ,
#455
1(
#460
0(
#465
1(
#470
0(
#475
1(
#480
0(
#485
1(
#490
0(
#495
1(
#500
b10 %$
b10 :$
b10 ?$
b10 4$
b10 *$
b10 ?
b10 !$
b10000000000000000000000000000010 3
b10000000000000000000000000000010 B$
b1000000000000000 $$
b1000000000000000 ;$
b0 1#
b10 1
b10 2#
b10 0#
b1000000000000000 @$
b0 ,#
b0 z"
b0 ##
b0 5#
b10 y"
b10 *#
b10 x"
b10 "#
b1 4#
b10 6#
b10 ]"
b1 !#
b1 t"
b1 E
b1 l"
b10 }"
b10 s"
b10 D
b10 k"
b10 F"
b10 <"
b10 B
b10 4"
b1000000000000000 2$
b1000000000000000 )$
b1000000000000000 =
b1000000000000000 }#
b1001 "
b1001 +
b1001 -
b10000000000000000000000000000000 #
b10000000000000000000000000000000 5
b10000000000000000 J
0(
b1 &
b1 )
b10000 %
b10000 .
b10 $
b10 ,
#505
1(
#510
0(
#515
1(
#520
0(
#525
1(
#530
0(
#535
1(
#540
0(
#545
1(
#550
b1000000000000000 %$
b1000000000000000 :$
b1000000000000000 ?$
b100000000000000000 #
b100000000000000000 5
b1000000000000000 4$
b1000000000000000 *$
b1000000000000000 ?
b1000000000000000 !$
b101000000000000000 3
b101000000000000000 B$
b10 $$
b10 ;$
b1000000000000000 1
b1000000000000000 2#
b1000000000000000 0#
b10 @$
b10000000 ,#
b10000000 z"
b10000000 ##
b10000000 5#
b0 4#
b1000000000000000 y"
b1000000000000000 *#
b0 x"
b0 "#
b1 6#
b1 ]"
b1000000000000000 !#
b1000000000000000 t"
b1000000000000000 E
b1000000000000000 l"
b1 }"
b1 s"
b1 D
b1 k"
b1 F"
b1 <"
b1 B
b1 4"
b10 2$
b10 )$
b10 =
b10 }#
b10000000000000000000000000000000 J
0(
b11111 %
b11111 .
b1 $
b1 ,
#555
1(
#560
0(
#565
1(
#570
0(
#575
1(
#580
0(
#585
1(
#590
0(
#595
1(
